(kicad_symbol_lib (version 20211014) (generator kicad_symbol_editor)
  (symbol "DFPLAYER_MINI" (in_bom yes) (on_board yes)
    (property "Reference" "U" (id 0) (at -15.24 -1.27 0)
      (effects (font (size 1.27 1.27)))
    )
    (property "Value" "DFPLAYER_MINI" (id 1) (at -8.89 1.27 0)
      (effects (font (size 1.27 1.27)))
    )
    (property "Footprint" "" (id 2) (at 0 0 0)
      (effects (font (size 1.27 1.27)) hide)
    )
    (property "Datasheet" "" (id 3) (at 0 0 0)
      (effects (font (size 1.27 1.27)) hide)
    )
    (symbol "DFPLAYER_MINI_0_1"
      (rectangle (start -8.89 -2.54) (end 7.62 -30.48)
        (stroke (width 0) (type default) (color 0 0 0 0))
        (fill (type none))
      )
    )
    (symbol "DFPLAYER_MINI_1_1"
      (pin power_in line (at 0 0 270) (length 2.54)
        (name "VCC" (effects (font (size 1.27 1.27))))
        (number "1" (effects (font (size 1.27 1.27))))
      )
      (pin input line (at 10.16 -6.35 180) (length 2.54)
        (name "USB-" (effects (font (size 1.27 1.27))))
        (number "10" (effects (font (size 1.27 1.27))))
      )
      (pin input line (at 10.16 -8.89 180) (length 2.54)
        (name "USB+" (effects (font (size 1.27 1.27))))
        (number "11" (effects (font (size 1.27 1.27))))
      )
      (pin input line (at 10.16 -11.43 180) (length 2.54)
        (name "ADKEY_2" (effects (font (size 1.27 1.27))))
        (number "12" (effects (font (size 1.27 1.27))))
      )
      (pin input line (at 10.16 -13.97 180) (length 2.54)
        (name "ADKEY_1" (effects (font (size 1.27 1.27))))
        (number "13" (effects (font (size 1.27 1.27))))
      )
      (pin input line (at 10.16 -16.51 180) (length 2.54)
        (name "IO_2" (effects (font (size 1.27 1.27))))
        (number "14" (effects (font (size 1.27 1.27))))
      )
      (pin power_in line (at 0 -33.02 90) (length 2.54) hide
        (name "GND" (effects (font (size 1.27 1.27))))
        (number "15" (effects (font (size 1.27 1.27))))
      )
      (pin input line (at 10.16 -21.59 180) (length 2.54)
        (name "IO_1" (effects (font (size 1.27 1.27))))
        (number "16" (effects (font (size 1.27 1.27))))
      )
      (pin input line (at -11.43 -6.35 0) (length 2.54)
        (name "RX" (effects (font (size 1.27 1.27))))
        (number "2" (effects (font (size 1.27 1.27))))
      )
      (pin input line (at -11.43 -8.89 0) (length 2.54)
        (name "TX" (effects (font (size 1.27 1.27))))
        (number "3" (effects (font (size 1.27 1.27))))
      )
      (pin input line (at -11.43 -11.43 0) (length 2.54)
        (name "DAC_R" (effects (font (size 1.27 1.27))))
        (number "4" (effects (font (size 1.27 1.27))))
      )
      (pin input line (at -11.43 -13.97 0) (length 2.54)
        (name "DAC_I" (effects (font (size 1.27 1.27))))
        (number "5" (effects (font (size 1.27 1.27))))
      )
      (pin input line (at -11.43 -16.51 0) (length 2.54)
        (name "SPK_1" (effects (font (size 1.27 1.27))))
        (number "6" (effects (font (size 1.27 1.27))))
      )
      (pin power_in line (at 0 -33.02 90) (length 2.54)
        (name "GND" (effects (font (size 1.27 1.27))))
        (number "7" (effects (font (size 1.27 1.27))))
      )
      (pin input line (at -11.43 -21.59 0) (length 2.54)
        (name "SPK_2" (effects (font (size 1.27 1.27))))
        (number "8" (effects (font (size 1.27 1.27))))
      )
      (pin input line (at 10.16 -3.81 180) (length 2.54)
        (name "BUSY" (effects (font (size 1.27 1.27))))
        (number "9" (effects (font (size 1.27 1.27))))
      )
    )
  )
)
