%TF.GenerationSoftware,KiCad,Pcbnew,(7.0.0)*%
%TF.CreationDate,2024-02-10T14:13:59+01:00*%
%TF.ProjectId,Nodo_WEMOS_SALIDAS,4e6f646f-5f57-4454-9d4f-535f53414c49,rev?*%
%TF.SameCoordinates,Original*%
%TF.FileFunction,Copper,L2,Bot*%
%TF.FilePolarity,Positive*%
%FSLAX46Y46*%
G04 Gerber Fmt 4.6, Leading zero omitted, Abs format (unit mm)*
G04 Created by KiCad (PCBNEW (7.0.0)) date 2024-02-10 14:13:59*
%MOMM*%
%LPD*%
G01*
G04 APERTURE LIST*
G04 Aperture macros list*
%AMRoundRect*
0 Rectangle with rounded corners*
0 $1 Rounding radius*
0 $2 $3 $4 $5 $6 $7 $8 $9 X,Y pos of 4 corners*
0 Add a 4 corners polygon primitive as box body*
4,1,4,$2,$3,$4,$5,$6,$7,$8,$9,$2,$3,0*
0 Add four circle primitives for the rounded corners*
1,1,$1+$1,$2,$3*
1,1,$1+$1,$4,$5*
1,1,$1+$1,$6,$7*
1,1,$1+$1,$8,$9*
0 Add four rect primitives between the rounded corners*
20,1,$1+$1,$2,$3,$4,$5,0*
20,1,$1+$1,$4,$5,$6,$7,0*
20,1,$1+$1,$6,$7,$8,$9,0*
20,1,$1+$1,$8,$9,$2,$3,0*%
G04 Aperture macros list end*
%TA.AperFunction,WasherPad*%
%ADD10C,3.500000*%
%TD*%
%TA.AperFunction,ComponentPad*%
%ADD11R,1.700000X1.700000*%
%TD*%
%TA.AperFunction,ComponentPad*%
%ADD12O,1.700000X1.700000*%
%TD*%
%TA.AperFunction,ComponentPad*%
%ADD13O,2.000000X1.600000*%
%TD*%
%TA.AperFunction,ComponentPad*%
%ADD14R,2.000000X2.000000*%
%TD*%
%TA.AperFunction,ComponentPad*%
%ADD15RoundRect,0.250000X0.600000X0.725000X-0.600000X0.725000X-0.600000X-0.725000X0.600000X-0.725000X0*%
%TD*%
%TA.AperFunction,ComponentPad*%
%ADD16O,1.700000X1.950000*%
%TD*%
%TA.AperFunction,ComponentPad*%
%ADD17RoundRect,0.250000X-0.725000X0.600000X-0.725000X-0.600000X0.725000X-0.600000X0.725000X0.600000X0*%
%TD*%
%TA.AperFunction,ComponentPad*%
%ADD18O,1.950000X1.700000*%
%TD*%
%TA.AperFunction,ComponentPad*%
%ADD19RoundRect,0.250000X-0.750000X0.600000X-0.750000X-0.600000X0.750000X-0.600000X0.750000X0.600000X0*%
%TD*%
%TA.AperFunction,ComponentPad*%
%ADD20O,2.000000X1.700000*%
%TD*%
%TA.AperFunction,ComponentPad*%
%ADD21RoundRect,0.250000X0.600000X0.750000X-0.600000X0.750000X-0.600000X-0.750000X0.600000X-0.750000X0*%
%TD*%
%TA.AperFunction,ComponentPad*%
%ADD22O,1.700000X2.000000*%
%TD*%
%TA.AperFunction,ViaPad*%
%ADD23C,0.600000*%
%TD*%
%TA.AperFunction,Conductor*%
%ADD24C,0.200000*%
%TD*%
%TA.AperFunction,Conductor*%
%ADD25C,0.600000*%
%TD*%
G04 APERTURE END LIST*
D10*
%TO.P,J4,*%
%TO.N,*%
X187500000Y-104000000D03*
X211300000Y-104000000D03*
X187500000Y-80700000D03*
X211300000Y-80700000D03*
D11*
%TO.P,J4,1,GND*%
%TO.N,GND*%
X186999999Y-96159999D03*
D12*
%TO.P,J4,2,VCC*%
%TO.N,+3V3*%
X186999999Y-93619999D03*
%TO.P,J4,3,SCL*%
%TO.N,/WEMOS_SCL*%
X186999999Y-91079999D03*
%TO.P,J4,4,SDA*%
%TO.N,/WEMOS_SDA*%
X186999999Y-88539999D03*
%TD*%
D13*
%TO.P,U1,16,TX*%
%TO.N,/TX*%
X181914999Y-77219999D03*
%TO.P,U1,15,RX*%
%TO.N,/RX*%
X181914999Y-79759999D03*
%TO.P,U1,14,SCL/D1*%
%TO.N,/WEMOS_SCL*%
X181914999Y-82299999D03*
%TO.P,U1,13,SDA/D2*%
%TO.N,/WEMOS_SDA*%
X181914999Y-84839999D03*
%TO.P,U1,12,D3*%
%TO.N,/Control_Mosfet*%
X181914999Y-87379999D03*
%TO.P,U1,11,D4*%
%TO.N,/Control_Rele*%
X181914999Y-89919999D03*
%TO.P,U1,10,GND*%
%TO.N,GND*%
X181914999Y-92459999D03*
%TO.P,U1,9,5V*%
%TO.N,+5V*%
X181914999Y-94999999D03*
%TO.P,U1,8,3V3*%
%TO.N,+3V3*%
X159054999Y-94999999D03*
%TO.P,U1,7,CS/D8*%
%TO.N,/CS*%
X159054999Y-92459999D03*
%TO.P,U1,6,MOSI/D7*%
%TO.N,/MOSI*%
X159054999Y-89919999D03*
%TO.P,U1,5,MISO/D6*%
%TO.N,/MISO*%
X159054999Y-87379999D03*
%TO.P,U1,4,SCK/D5*%
%TO.N,/SCK*%
X159054999Y-84839999D03*
%TO.P,U1,3,D0*%
%TO.N,/D0*%
X159054999Y-82299999D03*
%TO.P,U1,2,A0*%
%TO.N,/A0*%
X159054999Y-79759999D03*
D14*
%TO.P,U1,1,~{RST}*%
%TO.N,unconnected-(U1-~{RST}-Pad1)*%
X159054999Y-77219999D03*
%TD*%
D15*
%TO.P,J6,1,GND*%
%TO.N,/WEMOS_SDA*%
X160750000Y-111525000D03*
D16*
%TO.P,J6,2,VCC*%
%TO.N,/WEMOS_SCL*%
X158249999Y-111524999D03*
%TO.P,J6,3,SCL*%
%TO.N,+3V3*%
X155749999Y-111524999D03*
%TO.P,J6,4,SDA*%
%TO.N,GND*%
X153249999Y-111524999D03*
%TD*%
D17*
%TO.P,J5,1,Pin_1*%
%TO.N,/A0*%
X153700000Y-82000000D03*
D18*
%TO.P,J5,2,Pin_2*%
%TO.N,/D0*%
X153699999Y-84499999D03*
%TO.P,J5,3,Pin_3*%
%TO.N,/SCK*%
X153699999Y-86999999D03*
%TO.P,J5,4,Pin_4*%
%TO.N,/MISO*%
X153699999Y-89499999D03*
%TO.P,J5,5,Pin_5*%
%TO.N,/MOSI*%
X153699999Y-91999999D03*
%TO.P,J5,6,Pin_6*%
%TO.N,/CS*%
X153699999Y-94499999D03*
%TO.P,J5,7,Pin_7*%
%TO.N,/RX*%
X153699999Y-96999999D03*
%TO.P,J5,8,Pin_8*%
%TO.N,/TX*%
X153699999Y-99499999D03*
%TO.P,J5,9,Pin_9*%
%TO.N,+3V3*%
X153699999Y-101999999D03*
%TO.P,J5,10,Pin_10*%
%TO.N,GND*%
X153699999Y-104499999D03*
%TD*%
D19*
%TO.P,J3,1,Pin_1*%
%TO.N,GND*%
X186500000Y-116000000D03*
D20*
%TO.P,J3,2,Pin_2*%
%TO.N,+12V*%
X186499999Y-118499999D03*
%TD*%
D21*
%TO.P,J2,1,Pin_1*%
%TO.N,Net-(J2-Pin_1)*%
X182875000Y-126000000D03*
D22*
%TO.P,J2,2,Pin_2*%
%TO.N,GND*%
X180374999Y-125999999D03*
%TD*%
D15*
%TO.P,J1,1,Pin_1*%
%TO.N,+5V*%
X159500000Y-126000000D03*
D16*
%TO.P,J1,2,Pin_2*%
%TO.N,GND*%
X156999999Y-125999999D03*
%TO.P,J1,3,Pin_3*%
%TO.N,Net-(J1-Pin_3)*%
X154499999Y-125999999D03*
%TD*%
D23*
%TO.N,GND*%
X159200000Y-102000000D03*
X156800000Y-98600000D03*
X162400000Y-90000000D03*
X169600000Y-78900000D03*
X169900000Y-89800000D03*
%TD*%
D24*
%TO.N,/TX*%
X183500000Y-78000000D02*
X182720000Y-77220000D01*
X183500000Y-80500000D02*
X183500000Y-78000000D01*
X183000000Y-81000000D02*
X183500000Y-80500000D01*
X182720000Y-77220000D02*
X181915000Y-77220000D01*
X164300000Y-91200000D02*
X174500000Y-81000000D01*
X157000000Y-92500000D02*
X158300000Y-91200000D01*
X153700000Y-99300000D02*
X157000000Y-96000000D01*
X153700000Y-99500000D02*
X153700000Y-99300000D01*
%TO.N,/RX*%
X175175020Y-79760000D02*
X181915000Y-79760000D01*
X157800000Y-88700000D02*
X166235020Y-88700000D01*
X156500000Y-90000000D02*
X157800000Y-88700000D01*
X156500000Y-94000000D02*
X156500000Y-90000000D01*
X153700000Y-97000000D02*
X153700000Y-96800000D01*
%TO.N,/TX*%
X157000000Y-96000000D02*
X157000000Y-92500000D01*
X174500000Y-81000000D02*
X183000000Y-81000000D01*
X158300000Y-91200000D02*
X164300000Y-91200000D01*
%TO.N,/RX*%
X166235020Y-88700000D02*
X175175020Y-79760000D01*
X153700000Y-96800000D02*
X156500000Y-94000000D01*
%TO.N,/WEMOS_SCL*%
X188120000Y-91080000D02*
X187000000Y-91080000D01*
X188900000Y-90300000D02*
X188120000Y-91080000D01*
X181915000Y-82300000D02*
X183850000Y-82300000D01*
X183850000Y-82300000D02*
X188900000Y-87350000D01*
X188900000Y-87350000D02*
X188900000Y-90300000D01*
%TO.N,/WEMOS_SDA*%
X187000000Y-86200000D02*
X187000000Y-88540000D01*
X185640000Y-84840000D02*
X187000000Y-86200000D01*
X181915000Y-84840000D02*
X185640000Y-84840000D01*
D25*
%TO.N,+3V3*%
X184560000Y-96060000D02*
X179420000Y-101200000D01*
X185380000Y-93620000D02*
X184560000Y-94440000D01*
X179420000Y-101200000D02*
X165255000Y-101200000D01*
X187000000Y-93620000D02*
X185380000Y-93620000D01*
X184560000Y-94440000D02*
X184560000Y-96060000D01*
X165255000Y-101200000D02*
X159055000Y-95000000D01*
%TD*%
%TA.AperFunction,Conductor*%
%TO.N,GND*%
G36*
X157438000Y-75017113D02*
G01*
X157483387Y-75062500D01*
X157500000Y-75124500D01*
X157500000Y-76000000D01*
X157505975Y-76000000D01*
X157524549Y-76018574D01*
X157553805Y-76065002D01*
X157560157Y-76119510D01*
X157554855Y-76168817D01*
X157554854Y-76168833D01*
X157554500Y-76172127D01*
X157554500Y-76175448D01*
X157554500Y-76175449D01*
X157554500Y-78264560D01*
X157554500Y-78264578D01*
X157554501Y-78267872D01*
X157554853Y-78271150D01*
X157554854Y-78271161D01*
X157560079Y-78319768D01*
X157560080Y-78319773D01*
X157560909Y-78327483D01*
X157563619Y-78334749D01*
X157563620Y-78334753D01*
X157569519Y-78350568D01*
X157611204Y-78462331D01*
X157616518Y-78469430D01*
X157616519Y-78469431D01*
X157681792Y-78556625D01*
X157697454Y-78577546D01*
X157812669Y-78663796D01*
X157849916Y-78677688D01*
X157900293Y-78712664D01*
X157927748Y-78767509D01*
X157925560Y-78828802D01*
X157894264Y-78881549D01*
X157858782Y-78917031D01*
X157858776Y-78917037D01*
X157854953Y-78920861D01*
X157851850Y-78925291D01*
X157851847Y-78925296D01*
X157727540Y-79102826D01*
X157727535Y-79102833D01*
X157724432Y-79107266D01*
X157722144Y-79112172D01*
X157722142Y-79112176D01*
X157630550Y-79308594D01*
X157630547Y-79308599D01*
X157628261Y-79313504D01*
X157626862Y-79318724D01*
X157626858Y-79318736D01*
X157570764Y-79528083D01*
X157570762Y-79528094D01*
X157569365Y-79533308D01*
X157568893Y-79538693D01*
X157568893Y-79538698D01*
X157565950Y-79572336D01*
X157549532Y-79760000D01*
X157569365Y-79986692D01*
X157570762Y-79991907D01*
X157570764Y-79991916D01*
X157626858Y-80201263D01*
X157626861Y-80201271D01*
X157628261Y-80206496D01*
X157724432Y-80412734D01*
X157854953Y-80599139D01*
X158015861Y-80760047D01*
X158202266Y-80890568D01*
X158260276Y-80917618D01*
X158312449Y-80963373D01*
X158331869Y-81029997D01*
X158312451Y-81096622D01*
X158260276Y-81142380D01*
X158207178Y-81167141D01*
X158207173Y-81167143D01*
X158202266Y-81169432D01*
X158197833Y-81172535D01*
X158197826Y-81172540D01*
X158020296Y-81296847D01*
X158020291Y-81296850D01*
X158015861Y-81299953D01*
X158012037Y-81303776D01*
X158012031Y-81303782D01*
X157858782Y-81457031D01*
X157858776Y-81457037D01*
X157854953Y-81460861D01*
X157851850Y-81465291D01*
X157851847Y-81465296D01*
X157727540Y-81642826D01*
X157727535Y-81642833D01*
X157724432Y-81647266D01*
X157722144Y-81652172D01*
X157722142Y-81652176D01*
X157630550Y-81848594D01*
X157630547Y-81848599D01*
X157628261Y-81853504D01*
X157626862Y-81858724D01*
X157626858Y-81858736D01*
X157570764Y-82068083D01*
X157570762Y-82068094D01*
X157569365Y-82073308D01*
X157549532Y-82300000D01*
X157550004Y-82305395D01*
X157565856Y-82486591D01*
X157569365Y-82526692D01*
X157570762Y-82531907D01*
X157570764Y-82531916D01*
X157626858Y-82741263D01*
X157626861Y-82741271D01*
X157628261Y-82746496D01*
X157724432Y-82952734D01*
X157854953Y-83139139D01*
X158015861Y-83300047D01*
X158202266Y-83430568D01*
X158207172Y-83432855D01*
X158207176Y-83432858D01*
X158260274Y-83457618D01*
X158312450Y-83503375D01*
X158331869Y-83570000D01*
X158312450Y-83636625D01*
X158260274Y-83682382D01*
X158207176Y-83707141D01*
X158207163Y-83707148D01*
X158202266Y-83709432D01*
X158197833Y-83712535D01*
X158197826Y-83712540D01*
X158020296Y-83836847D01*
X158020291Y-83836850D01*
X158015861Y-83839953D01*
X158012037Y-83843776D01*
X158012031Y-83843782D01*
X157858782Y-83997031D01*
X157858776Y-83997037D01*
X157854953Y-84000861D01*
X157851850Y-84005291D01*
X157851847Y-84005296D01*
X157727540Y-84182826D01*
X157727535Y-84182833D01*
X157724432Y-84187266D01*
X157722144Y-84192172D01*
X157722142Y-84192176D01*
X157630550Y-84388594D01*
X157630547Y-84388599D01*
X157628261Y-84393504D01*
X157626862Y-84398724D01*
X157626858Y-84398736D01*
X157570764Y-84608083D01*
X157570762Y-84608094D01*
X157569365Y-84613308D01*
X157568893Y-84618693D01*
X157568893Y-84618698D01*
X157558225Y-84740634D01*
X157549532Y-84840000D01*
X157550004Y-84845395D01*
X157560780Y-84968572D01*
X157569365Y-85066692D01*
X157570762Y-85071907D01*
X157570764Y-85071916D01*
X157626858Y-85281263D01*
X157626861Y-85281271D01*
X157628261Y-85286496D01*
X157724432Y-85492734D01*
X157854953Y-85679139D01*
X158015861Y-85840047D01*
X158202266Y-85970568D01*
X158207172Y-85972855D01*
X158207176Y-85972858D01*
X158260274Y-85997618D01*
X158312450Y-86043375D01*
X158331869Y-86110000D01*
X158312450Y-86176625D01*
X158260274Y-86222382D01*
X158207176Y-86247141D01*
X158207163Y-86247148D01*
X158202266Y-86249432D01*
X158197833Y-86252535D01*
X158197826Y-86252540D01*
X158020296Y-86376847D01*
X158020291Y-86376850D01*
X158015861Y-86379953D01*
X158012037Y-86383776D01*
X158012031Y-86383782D01*
X157858782Y-86537031D01*
X157858776Y-86537037D01*
X157854953Y-86540861D01*
X157851850Y-86545291D01*
X157851847Y-86545296D01*
X157727540Y-86722826D01*
X157727535Y-86722833D01*
X157724432Y-86727266D01*
X157722144Y-86732172D01*
X157722142Y-86732176D01*
X157630550Y-86928594D01*
X157630547Y-86928599D01*
X157628261Y-86933504D01*
X157626862Y-86938724D01*
X157626858Y-86938736D01*
X157570764Y-87148083D01*
X157570762Y-87148094D01*
X157569365Y-87153308D01*
X157568893Y-87158693D01*
X157568893Y-87158698D01*
X157562654Y-87230017D01*
X157549532Y-87380000D01*
X157550004Y-87385395D01*
X157559890Y-87498399D01*
X157569365Y-87606692D01*
X157570762Y-87611907D01*
X157570764Y-87611916D01*
X157626858Y-87821263D01*
X157626861Y-87821271D01*
X157628261Y-87826496D01*
X157630549Y-87831403D01*
X157630550Y-87831405D01*
X157688679Y-87956062D01*
X157699655Y-88021069D01*
X157675760Y-88082514D01*
X157623750Y-88123028D01*
X157504666Y-88172354D01*
X157504662Y-88172355D01*
X157497159Y-88175464D01*
X157490714Y-88180408D01*
X157490711Y-88180411D01*
X157378164Y-88266771D01*
X157378160Y-88266774D01*
X157371718Y-88271718D01*
X157366774Y-88278160D01*
X157366771Y-88278164D01*
X157352494Y-88296771D01*
X157341800Y-88308964D01*
X156108965Y-89541798D01*
X156096774Y-89552490D01*
X156078165Y-89566770D01*
X156078161Y-89566773D01*
X156071718Y-89571718D01*
X156066774Y-89578160D01*
X156066772Y-89578163D01*
X156047550Y-89603215D01*
X155980411Y-89690711D01*
X155980408Y-89690714D01*
X155975464Y-89697159D01*
X155972355Y-89704663D01*
X155972353Y-89704668D01*
X155918066Y-89835728D01*
X155918064Y-89835733D01*
X155914956Y-89843238D01*
X155913896Y-89851289D01*
X155913894Y-89851297D01*
X155895702Y-89989482D01*
X155894318Y-90000000D01*
X155895379Y-90008059D01*
X155898439Y-90031302D01*
X155899500Y-90047487D01*
X155899500Y-93699903D01*
X155890061Y-93747356D01*
X155863181Y-93787584D01*
X155359713Y-94291050D01*
X155304125Y-94323144D01*
X155239938Y-94323144D01*
X155184350Y-94291050D01*
X155152258Y-94235464D01*
X155098903Y-94036337D01*
X154999035Y-93822171D01*
X154863495Y-93628599D01*
X154696401Y-93461505D01*
X154539403Y-93351574D01*
X154500538Y-93307257D01*
X154486527Y-93250000D01*
X154500538Y-93192743D01*
X154539404Y-93148425D01*
X154696401Y-93038495D01*
X154863495Y-92871401D01*
X154999035Y-92677830D01*
X155098903Y-92463663D01*
X155160063Y-92235408D01*
X155180659Y-92000000D01*
X155160063Y-91764592D01*
X155098903Y-91536337D01*
X154999035Y-91322171D01*
X154863495Y-91128599D01*
X154696401Y-90961505D01*
X154539403Y-90851574D01*
X154500537Y-90807255D01*
X154486527Y-90749998D01*
X154500538Y-90692742D01*
X154539401Y-90648426D01*
X154696401Y-90538495D01*
X154863495Y-90371401D01*
X154999035Y-90177830D01*
X155098903Y-89963663D01*
X155160063Y-89735408D01*
X155180659Y-89500000D01*
X155160063Y-89264592D01*
X155098903Y-89036337D01*
X154999035Y-88822171D01*
X154863495Y-88628599D01*
X154696401Y-88461505D01*
X154539403Y-88351574D01*
X154500538Y-88307257D01*
X154486527Y-88250000D01*
X154500538Y-88192743D01*
X154539404Y-88148425D01*
X154696401Y-88038495D01*
X154863495Y-87871401D01*
X154999035Y-87677830D01*
X155098903Y-87463663D01*
X155160063Y-87235408D01*
X155180659Y-87000000D01*
X155160063Y-86764592D01*
X155098903Y-86536337D01*
X154999035Y-86322171D01*
X154863495Y-86128599D01*
X154696401Y-85961505D01*
X154539403Y-85851574D01*
X154500537Y-85807255D01*
X154486527Y-85749998D01*
X154500538Y-85692742D01*
X154539401Y-85648426D01*
X154696401Y-85538495D01*
X154863495Y-85371401D01*
X154999035Y-85177830D01*
X155098903Y-84963663D01*
X155160063Y-84735408D01*
X155180659Y-84500000D01*
X155160063Y-84264592D01*
X155098903Y-84036337D01*
X154999035Y-83822171D01*
X154863495Y-83628599D01*
X154715734Y-83480837D01*
X154685153Y-83430441D01*
X154681300Y-83371618D01*
X154705046Y-83317662D01*
X154744879Y-83285698D01*
X154744334Y-83284814D01*
X154887511Y-83196502D01*
X154893656Y-83192712D01*
X155017712Y-83068656D01*
X155109814Y-82919334D01*
X155164999Y-82752797D01*
X155175500Y-82650009D01*
X155175499Y-81349992D01*
X155164999Y-81247203D01*
X155109814Y-81080666D01*
X155030731Y-80952451D01*
X155021502Y-80937488D01*
X155021500Y-80937485D01*
X155017712Y-80931344D01*
X154893656Y-80807288D01*
X154887515Y-80803500D01*
X154887511Y-80803497D01*
X154750480Y-80718977D01*
X154744334Y-80715186D01*
X154693541Y-80698355D01*
X154584225Y-80662131D01*
X154584224Y-80662130D01*
X154577797Y-80660001D01*
X154571064Y-80659313D01*
X154571059Y-80659312D01*
X154478140Y-80649819D01*
X154478123Y-80649818D01*
X154475009Y-80649500D01*
X154471860Y-80649500D01*
X152928140Y-80649500D01*
X152928120Y-80649500D01*
X152924992Y-80649501D01*
X152921860Y-80649820D01*
X152921858Y-80649821D01*
X152828938Y-80659312D01*
X152828928Y-80659313D01*
X152822203Y-80660001D01*
X152815781Y-80662128D01*
X152815776Y-80662130D01*
X152662521Y-80712914D01*
X152662517Y-80712915D01*
X152655666Y-80715186D01*
X152649522Y-80718975D01*
X152649519Y-80718977D01*
X152512488Y-80803497D01*
X152512480Y-80803503D01*
X152506344Y-80807288D01*
X152501242Y-80812389D01*
X152501238Y-80812393D01*
X152387393Y-80926238D01*
X152387389Y-80926242D01*
X152382288Y-80931344D01*
X152378503Y-80937480D01*
X152378497Y-80937488D01*
X152294753Y-81073261D01*
X152290186Y-81080666D01*
X152287915Y-81087517D01*
X152287914Y-81087521D01*
X152259742Y-81172540D01*
X152235001Y-81247203D01*
X152234313Y-81253933D01*
X152234312Y-81253940D01*
X152224819Y-81346859D01*
X152224818Y-81346877D01*
X152224500Y-81349991D01*
X152224500Y-81353138D01*
X152224500Y-81353139D01*
X152224500Y-82646859D01*
X152224500Y-82646878D01*
X152224501Y-82650008D01*
X152224820Y-82653140D01*
X152224821Y-82653141D01*
X152234312Y-82746061D01*
X152234313Y-82746069D01*
X152235001Y-82752797D01*
X152237129Y-82759219D01*
X152237130Y-82759223D01*
X152276911Y-82879273D01*
X152290186Y-82919334D01*
X152300487Y-82936034D01*
X152378497Y-83062511D01*
X152378500Y-83062515D01*
X152382288Y-83068656D01*
X152506344Y-83192712D01*
X152512485Y-83196500D01*
X152512488Y-83196502D01*
X152655666Y-83284814D01*
X152655120Y-83285697D01*
X152694957Y-83317667D01*
X152718700Y-83371621D01*
X152714845Y-83430443D01*
X152684266Y-83480837D01*
X152536505Y-83628599D01*
X152533406Y-83633023D01*
X152533399Y-83633033D01*
X152404066Y-83817740D01*
X152404061Y-83817747D01*
X152400965Y-83822170D01*
X152398683Y-83827061D01*
X152398678Y-83827072D01*
X152303386Y-84031427D01*
X152303383Y-84031432D01*
X152301097Y-84036337D01*
X152299698Y-84041557D01*
X152299694Y-84041569D01*
X152241337Y-84259365D01*
X152241335Y-84259371D01*
X152239937Y-84264592D01*
X152239465Y-84269977D01*
X152239465Y-84269982D01*
X152219813Y-84494605D01*
X152219341Y-84500000D01*
X152239937Y-84735408D01*
X152241336Y-84740630D01*
X152241337Y-84740634D01*
X152299694Y-84958430D01*
X152299697Y-84958438D01*
X152301097Y-84963663D01*
X152400965Y-85177829D01*
X152536505Y-85371401D01*
X152703599Y-85538495D01*
X152860595Y-85648424D01*
X152860596Y-85648425D01*
X152899461Y-85692743D01*
X152913472Y-85750000D01*
X152899461Y-85807257D01*
X152860596Y-85851574D01*
X152703599Y-85961505D01*
X152699775Y-85965328D01*
X152699769Y-85965334D01*
X152540336Y-86124767D01*
X152540330Y-86124773D01*
X152536505Y-86128599D01*
X152533406Y-86133023D01*
X152533399Y-86133033D01*
X152404066Y-86317740D01*
X152404061Y-86317747D01*
X152400965Y-86322170D01*
X152398683Y-86327061D01*
X152398678Y-86327072D01*
X152303386Y-86531427D01*
X152303383Y-86531432D01*
X152301097Y-86536337D01*
X152299698Y-86541557D01*
X152299694Y-86541569D01*
X152241337Y-86759365D01*
X152241335Y-86759371D01*
X152239937Y-86764592D01*
X152239465Y-86769977D01*
X152239465Y-86769982D01*
X152223434Y-86953214D01*
X152219341Y-87000000D01*
X152219813Y-87005395D01*
X152236952Y-87201297D01*
X152239937Y-87235408D01*
X152241336Y-87240630D01*
X152241337Y-87240634D01*
X152299694Y-87458430D01*
X152299697Y-87458438D01*
X152301097Y-87463663D01*
X152400965Y-87677829D01*
X152536505Y-87871401D01*
X152703599Y-88038495D01*
X152824325Y-88123028D01*
X152860596Y-88148425D01*
X152899461Y-88192743D01*
X152913472Y-88250000D01*
X152899461Y-88307257D01*
X152860596Y-88351574D01*
X152703599Y-88461505D01*
X152699775Y-88465328D01*
X152699769Y-88465334D01*
X152540336Y-88624767D01*
X152540330Y-88624773D01*
X152536505Y-88628599D01*
X152533406Y-88633023D01*
X152533399Y-88633033D01*
X152404066Y-88817740D01*
X152404061Y-88817747D01*
X152400965Y-88822170D01*
X152398683Y-88827061D01*
X152398678Y-88827072D01*
X152303386Y-89031427D01*
X152303383Y-89031432D01*
X152301097Y-89036337D01*
X152299698Y-89041557D01*
X152299694Y-89041569D01*
X152241337Y-89259365D01*
X152241335Y-89259371D01*
X152239937Y-89264592D01*
X152239465Y-89269977D01*
X152239465Y-89269982D01*
X152226757Y-89415232D01*
X152219341Y-89500000D01*
X152219813Y-89505395D01*
X152237247Y-89704668D01*
X152239937Y-89735408D01*
X152241336Y-89740630D01*
X152241337Y-89740634D01*
X152299694Y-89958430D01*
X152299697Y-89958438D01*
X152301097Y-89963663D01*
X152400965Y-90177829D01*
X152404072Y-90182266D01*
X152404073Y-90182268D01*
X152419883Y-90204847D01*
X152536505Y-90371401D01*
X152703599Y-90538495D01*
X152860595Y-90648424D01*
X152899461Y-90692742D01*
X152913472Y-90749998D01*
X152899462Y-90807255D01*
X152860596Y-90851573D01*
X152708036Y-90958397D01*
X152708029Y-90958403D01*
X152703599Y-90961505D01*
X152699775Y-90965328D01*
X152699769Y-90965334D01*
X152540336Y-91124767D01*
X152540330Y-91124773D01*
X152536505Y-91128599D01*
X152533406Y-91133023D01*
X152533399Y-91133033D01*
X152404066Y-91317740D01*
X152404061Y-91317747D01*
X152400965Y-91322170D01*
X152398683Y-91327061D01*
X152398678Y-91327072D01*
X152303386Y-91531427D01*
X152303383Y-91531432D01*
X152301097Y-91536337D01*
X152299698Y-91541557D01*
X152299694Y-91541569D01*
X152241337Y-91759365D01*
X152241335Y-91759371D01*
X152239937Y-91764592D01*
X152239465Y-91769977D01*
X152239465Y-91769982D01*
X152219813Y-91994605D01*
X152219341Y-92000000D01*
X152219813Y-92005395D01*
X152237490Y-92207448D01*
X152239937Y-92235408D01*
X152241336Y-92240630D01*
X152241337Y-92240634D01*
X152299694Y-92458430D01*
X152299697Y-92458438D01*
X152301097Y-92463663D01*
X152400965Y-92677829D01*
X152404072Y-92682266D01*
X152404073Y-92682268D01*
X152433140Y-92723780D01*
X152536505Y-92871401D01*
X152703599Y-93038495D01*
X152860596Y-93148425D01*
X152899461Y-93192743D01*
X152913472Y-93250000D01*
X152899461Y-93307257D01*
X152860596Y-93351574D01*
X152703599Y-93461505D01*
X152699775Y-93465328D01*
X152699769Y-93465334D01*
X152540336Y-93624767D01*
X152540330Y-93624773D01*
X152536505Y-93628599D01*
X152533406Y-93633023D01*
X152533399Y-93633033D01*
X152404066Y-93817740D01*
X152404061Y-93817747D01*
X152400965Y-93822170D01*
X152398683Y-93827061D01*
X152398678Y-93827072D01*
X152303386Y-94031427D01*
X152303383Y-94031432D01*
X152301097Y-94036337D01*
X152299698Y-94041557D01*
X152299694Y-94041569D01*
X152241337Y-94259365D01*
X152241335Y-94259371D01*
X152239937Y-94264592D01*
X152239465Y-94269977D01*
X152239465Y-94269982D01*
X152225471Y-94429939D01*
X152219341Y-94500000D01*
X152219813Y-94505395D01*
X152233904Y-94666460D01*
X152239937Y-94735408D01*
X152241336Y-94740630D01*
X152241337Y-94740634D01*
X152299694Y-94958430D01*
X152299697Y-94958438D01*
X152301097Y-94963663D01*
X152303385Y-94968570D01*
X152303386Y-94968572D01*
X152369293Y-95109908D01*
X152400965Y-95177829D01*
X152536505Y-95371401D01*
X152703599Y-95538495D01*
X152860595Y-95648424D01*
X152899461Y-95692742D01*
X152913472Y-95749998D01*
X152899462Y-95807255D01*
X152860596Y-95851573D01*
X152708036Y-95958397D01*
X152708027Y-95958404D01*
X152703599Y-95961505D01*
X152699775Y-95965328D01*
X152699769Y-95965334D01*
X152540336Y-96124767D01*
X152540330Y-96124773D01*
X152536505Y-96128599D01*
X152533406Y-96133023D01*
X152533399Y-96133033D01*
X152404066Y-96317740D01*
X152404061Y-96317747D01*
X152400965Y-96322170D01*
X152398683Y-96327061D01*
X152398678Y-96327072D01*
X152303386Y-96531427D01*
X152303383Y-96531432D01*
X152301097Y-96536337D01*
X152299698Y-96541557D01*
X152299694Y-96541569D01*
X152241337Y-96759365D01*
X152241335Y-96759371D01*
X152239937Y-96764592D01*
X152219341Y-97000000D01*
X152239937Y-97235408D01*
X152241336Y-97240630D01*
X152241337Y-97240634D01*
X152299694Y-97458430D01*
X152299697Y-97458438D01*
X152301097Y-97463663D01*
X152400965Y-97677829D01*
X152536505Y-97871401D01*
X152703599Y-98038495D01*
X152860596Y-98148425D01*
X152899461Y-98192743D01*
X152913472Y-98250000D01*
X152899461Y-98307257D01*
X152860596Y-98351574D01*
X152703599Y-98461505D01*
X152699775Y-98465328D01*
X152699769Y-98465334D01*
X152540336Y-98624767D01*
X152540330Y-98624773D01*
X152536505Y-98628599D01*
X152533406Y-98633023D01*
X152533399Y-98633033D01*
X152404066Y-98817740D01*
X152404061Y-98817747D01*
X152400965Y-98822170D01*
X152398683Y-98827061D01*
X152398678Y-98827072D01*
X152303386Y-99031427D01*
X152303383Y-99031432D01*
X152301097Y-99036337D01*
X152299698Y-99041557D01*
X152299694Y-99041569D01*
X152241337Y-99259365D01*
X152241335Y-99259371D01*
X152239937Y-99264592D01*
X152219341Y-99500000D01*
X152239937Y-99735408D01*
X152241336Y-99740630D01*
X152241337Y-99740634D01*
X152299694Y-99958430D01*
X152299697Y-99958438D01*
X152301097Y-99963663D01*
X152400965Y-100177829D01*
X152536505Y-100371401D01*
X152703599Y-100538495D01*
X152860596Y-100648425D01*
X152899461Y-100692743D01*
X152913472Y-100750000D01*
X152899461Y-100807257D01*
X152860596Y-100851574D01*
X152703599Y-100961505D01*
X152699775Y-100965328D01*
X152699769Y-100965334D01*
X152540336Y-101124767D01*
X152540330Y-101124773D01*
X152536505Y-101128599D01*
X152533406Y-101133023D01*
X152533399Y-101133033D01*
X152404066Y-101317740D01*
X152404061Y-101317747D01*
X152400965Y-101322170D01*
X152398683Y-101327061D01*
X152398678Y-101327072D01*
X152303386Y-101531427D01*
X152303383Y-101531432D01*
X152301097Y-101536337D01*
X152299698Y-101541557D01*
X152299694Y-101541569D01*
X152241337Y-101759365D01*
X152241335Y-101759371D01*
X152239937Y-101764592D01*
X152239465Y-101769977D01*
X152239465Y-101769982D01*
X152219813Y-101994605D01*
X152219341Y-102000000D01*
X152219813Y-102005395D01*
X152237777Y-102210727D01*
X152239937Y-102235408D01*
X152241336Y-102240630D01*
X152241337Y-102240634D01*
X152299694Y-102458430D01*
X152299697Y-102458438D01*
X152301097Y-102463663D01*
X152400965Y-102677829D01*
X152536505Y-102871401D01*
X152703599Y-103038495D01*
X152849662Y-103140769D01*
X152861032Y-103148730D01*
X152899898Y-103193048D01*
X152913909Y-103250305D01*
X152899898Y-103307562D01*
X152861033Y-103351880D01*
X152708352Y-103458788D01*
X152700092Y-103465719D01*
X152540721Y-103625090D01*
X152533784Y-103633356D01*
X152404501Y-103817991D01*
X152399113Y-103827323D01*
X152303856Y-104031602D01*
X152300168Y-104041736D01*
X152248056Y-104236219D01*
X152247688Y-104247448D01*
X152258631Y-104250000D01*
X155141369Y-104250000D01*
X155152311Y-104247448D01*
X155151943Y-104236219D01*
X155099831Y-104041736D01*
X155096143Y-104031602D01*
X155081407Y-104000000D01*
X185244671Y-104000000D01*
X185263966Y-104294380D01*
X185264757Y-104298361D01*
X185264758Y-104298362D01*
X185320726Y-104579738D01*
X185320728Y-104579745D01*
X185321519Y-104583722D01*
X185322819Y-104587553D01*
X185322823Y-104587566D01*
X185377963Y-104750000D01*
X185416348Y-104863077D01*
X185418141Y-104866713D01*
X185418144Y-104866720D01*
X185545032Y-105124025D01*
X185545038Y-105124036D01*
X185546828Y-105127665D01*
X185549079Y-105131034D01*
X185549082Y-105131039D01*
X185706507Y-105366642D01*
X185710727Y-105372957D01*
X185905242Y-105594758D01*
X186127043Y-105789273D01*
X186372335Y-105953172D01*
X186375968Y-105954963D01*
X186375974Y-105954967D01*
X186633279Y-106081855D01*
X186636923Y-106083652D01*
X186836992Y-106151566D01*
X186912433Y-106177176D01*
X186912435Y-106177176D01*
X186916278Y-106178481D01*
X187205620Y-106236034D01*
X187500000Y-106255329D01*
X187794380Y-106236034D01*
X188083722Y-106178481D01*
X188363077Y-106083652D01*
X188627665Y-105953172D01*
X188872957Y-105789273D01*
X189094758Y-105594758D01*
X189289273Y-105372957D01*
X189453172Y-105127665D01*
X189583652Y-104863077D01*
X189678481Y-104583722D01*
X189736034Y-104294380D01*
X189751765Y-104054360D01*
X189769887Y-104000000D01*
X189751766Y-103945640D01*
X189751234Y-103937530D01*
X189736034Y-103705620D01*
X189678481Y-103416278D01*
X189583652Y-103136923D01*
X189453172Y-102872336D01*
X189289273Y-102627043D01*
X189094758Y-102405242D01*
X188872957Y-102210727D01*
X188869575Y-102208467D01*
X188631039Y-102049082D01*
X188631034Y-102049079D01*
X188627665Y-102046828D01*
X188624036Y-102045038D01*
X188624025Y-102045032D01*
X188366720Y-101918144D01*
X188366713Y-101918141D01*
X188363077Y-101916348D01*
X188359230Y-101915042D01*
X188087566Y-101822823D01*
X188087553Y-101822819D01*
X188083722Y-101821519D01*
X188079745Y-101820728D01*
X188079738Y-101820726D01*
X187798362Y-101764758D01*
X187798361Y-101764757D01*
X187794380Y-101763966D01*
X187790330Y-101763700D01*
X187790326Y-101763700D01*
X187504058Y-101744937D01*
X187500000Y-101744671D01*
X187495942Y-101744937D01*
X187209673Y-101763700D01*
X187209667Y-101763700D01*
X187205620Y-101763966D01*
X187201640Y-101764757D01*
X187201637Y-101764758D01*
X186920261Y-101820726D01*
X186920250Y-101820728D01*
X186916278Y-101821519D01*
X186912449Y-101822818D01*
X186912433Y-101822823D01*
X186640769Y-101915042D01*
X186640762Y-101915044D01*
X186636923Y-101916348D01*
X186633286Y-101918141D01*
X186633280Y-101918144D01*
X186375976Y-102045032D01*
X186375964Y-102045038D01*
X186372336Y-102046828D01*
X186368973Y-102049075D01*
X186368961Y-102049082D01*
X186130424Y-102208467D01*
X186130414Y-102208473D01*
X186127043Y-102210727D01*
X186123992Y-102213402D01*
X186123985Y-102213408D01*
X185908290Y-102402568D01*
X185908282Y-102402575D01*
X185905242Y-102405242D01*
X185902575Y-102408282D01*
X185902568Y-102408290D01*
X185713408Y-102623985D01*
X185713402Y-102623992D01*
X185710727Y-102627043D01*
X185708473Y-102630414D01*
X185708467Y-102630424D01*
X185549082Y-102868961D01*
X185549075Y-102868973D01*
X185546828Y-102872336D01*
X185545038Y-102875964D01*
X185545032Y-102875976D01*
X185418144Y-103133280D01*
X185418141Y-103133286D01*
X185416348Y-103136923D01*
X185415044Y-103140762D01*
X185415042Y-103140769D01*
X185322823Y-103412433D01*
X185322818Y-103412449D01*
X185321519Y-103416278D01*
X185320728Y-103420250D01*
X185320726Y-103420261D01*
X185264758Y-103701637D01*
X185263966Y-103705620D01*
X185263700Y-103709667D01*
X185263700Y-103709673D01*
X185255989Y-103827323D01*
X185244671Y-104000000D01*
X155081407Y-104000000D01*
X155000889Y-103827332D01*
X154995491Y-103817982D01*
X154866215Y-103633357D01*
X154859280Y-103625092D01*
X154699907Y-103465719D01*
X154691642Y-103458784D01*
X154538967Y-103351880D01*
X154500101Y-103307562D01*
X154486090Y-103250305D01*
X154500101Y-103193048D01*
X154538964Y-103148732D01*
X154696401Y-103038495D01*
X154863495Y-102871401D01*
X154999035Y-102677830D01*
X155098903Y-102463663D01*
X155160063Y-102235408D01*
X155180659Y-102000000D01*
X155179957Y-101991982D01*
X155177191Y-101960360D01*
X155160063Y-101764592D01*
X155098903Y-101536337D01*
X154999035Y-101322171D01*
X154863495Y-101128599D01*
X154696401Y-100961505D01*
X154539403Y-100851574D01*
X154500538Y-100807257D01*
X154486527Y-100750000D01*
X154500538Y-100692743D01*
X154539404Y-100648425D01*
X154696401Y-100538495D01*
X154863495Y-100371401D01*
X154999035Y-100177830D01*
X155098903Y-99963663D01*
X155160063Y-99735408D01*
X155180659Y-99500000D01*
X155160063Y-99264592D01*
X155098903Y-99036337D01*
X155044641Y-98919974D01*
X155033076Y-98871178D01*
X155041785Y-98821790D01*
X155069341Y-98779892D01*
X157391044Y-96458189D01*
X157403222Y-96447510D01*
X157428282Y-96428282D01*
X157524536Y-96302841D01*
X157585044Y-96156762D01*
X157600500Y-96039361D01*
X157605682Y-96000000D01*
X157601561Y-95968698D01*
X157600500Y-95952513D01*
X157600500Y-95869020D01*
X157616047Y-95808904D01*
X157658790Y-95763862D01*
X157718010Y-95745190D01*
X157778858Y-95757570D01*
X157826074Y-95797895D01*
X157854953Y-95839139D01*
X158015861Y-96000047D01*
X158202266Y-96130568D01*
X158408504Y-96226739D01*
X158413734Y-96228140D01*
X158413736Y-96228141D01*
X158623083Y-96284235D01*
X158628308Y-96285635D01*
X158798216Y-96300500D01*
X159172060Y-96300500D01*
X159219513Y-96309939D01*
X159259741Y-96336818D01*
X164625184Y-101702262D01*
X164752738Y-101829816D01*
X164758633Y-101833520D01*
X164785143Y-101850177D01*
X164796484Y-101858223D01*
X164826413Y-101882091D01*
X164832688Y-101885113D01*
X164832690Y-101885114D01*
X164860895Y-101898697D01*
X164873064Y-101905422D01*
X164905478Y-101925789D01*
X164912047Y-101928087D01*
X164912048Y-101928088D01*
X164941606Y-101938431D01*
X164954443Y-101943747D01*
X164988939Y-101960360D01*
X165026266Y-101968879D01*
X165039613Y-101972725D01*
X165069170Y-101983068D01*
X165069175Y-101983069D01*
X165075745Y-101985368D01*
X165113778Y-101989653D01*
X165127484Y-101991981D01*
X165164806Y-102000500D01*
X165210046Y-102000500D01*
X165345194Y-102000500D01*
X179329806Y-102000500D01*
X179464954Y-102000500D01*
X179503233Y-102000500D01*
X179510194Y-102000500D01*
X179547523Y-101991979D01*
X179561197Y-101989655D01*
X179599255Y-101985368D01*
X179635403Y-101972718D01*
X179648726Y-101968881D01*
X179686061Y-101960360D01*
X179720546Y-101943752D01*
X179733398Y-101938429D01*
X179769522Y-101925789D01*
X179801939Y-101905418D01*
X179814086Y-101898705D01*
X179848587Y-101882091D01*
X179878519Y-101858220D01*
X179889853Y-101850179D01*
X179889856Y-101850177D01*
X179922262Y-101829816D01*
X180049816Y-101702262D01*
X180049816Y-101702261D01*
X184697558Y-97054518D01*
X185650000Y-97054518D01*
X185650353Y-97061114D01*
X185655573Y-97109667D01*
X185659111Y-97124641D01*
X185703547Y-97243777D01*
X185711962Y-97259189D01*
X185787498Y-97360092D01*
X185799907Y-97372501D01*
X185900810Y-97448037D01*
X185916222Y-97456452D01*
X186035358Y-97500888D01*
X186050332Y-97504426D01*
X186098885Y-97509646D01*
X186105482Y-97510000D01*
X186733674Y-97510000D01*
X186746549Y-97506549D01*
X186750000Y-97493674D01*
X187250000Y-97493674D01*
X187253450Y-97506549D01*
X187266326Y-97510000D01*
X187894518Y-97510000D01*
X187901114Y-97509646D01*
X187949667Y-97504426D01*
X187964641Y-97500888D01*
X188083777Y-97456452D01*
X188099189Y-97448037D01*
X188200092Y-97372501D01*
X188212501Y-97360092D01*
X188288037Y-97259189D01*
X188296452Y-97243777D01*
X188340888Y-97124641D01*
X188344426Y-97109667D01*
X188349646Y-97061114D01*
X188350000Y-97054518D01*
X188350000Y-96426326D01*
X188346549Y-96413450D01*
X188333674Y-96410000D01*
X187266326Y-96410000D01*
X187253450Y-96413450D01*
X187250000Y-96426326D01*
X187250000Y-97493674D01*
X186750000Y-97493674D01*
X186750000Y-96426326D01*
X186746549Y-96413450D01*
X186733674Y-96410000D01*
X185666326Y-96410000D01*
X185653450Y-96413450D01*
X185650000Y-96426326D01*
X185650000Y-97054518D01*
X184697558Y-97054518D01*
X185062259Y-96689817D01*
X185062262Y-96689816D01*
X185189816Y-96562262D01*
X185210185Y-96529843D01*
X185218218Y-96518521D01*
X185242092Y-96488586D01*
X185258704Y-96454088D01*
X185265423Y-96441933D01*
X185285789Y-96409522D01*
X185298431Y-96373394D01*
X185303749Y-96360553D01*
X185320360Y-96326061D01*
X185328881Y-96288726D01*
X185332718Y-96275403D01*
X185345368Y-96239255D01*
X185349655Y-96201197D01*
X185351979Y-96187523D01*
X185360500Y-96150194D01*
X185360500Y-95969805D01*
X185360500Y-94822940D01*
X185369939Y-94775487D01*
X185396819Y-94735259D01*
X185675259Y-94456819D01*
X185715487Y-94429939D01*
X185762940Y-94420500D01*
X185847310Y-94420500D01*
X185904568Y-94434511D01*
X185948886Y-94473379D01*
X185958397Y-94486963D01*
X185958400Y-94486966D01*
X185961505Y-94491401D01*
X185965334Y-94495230D01*
X186083818Y-94613714D01*
X186115114Y-94666460D01*
X186117303Y-94727753D01*
X186089850Y-94782597D01*
X186039471Y-94817576D01*
X185916226Y-94863544D01*
X185900810Y-94871962D01*
X185799907Y-94947498D01*
X185787498Y-94959907D01*
X185711962Y-95060810D01*
X185703547Y-95076222D01*
X185659111Y-95195358D01*
X185655573Y-95210332D01*
X185650353Y-95258885D01*
X185650000Y-95265482D01*
X185650000Y-95893674D01*
X185653450Y-95906549D01*
X185666326Y-95910000D01*
X188333674Y-95910000D01*
X188346549Y-95906549D01*
X188350000Y-95893674D01*
X188350000Y-95265482D01*
X188349646Y-95258885D01*
X188344426Y-95210332D01*
X188340888Y-95195358D01*
X188296452Y-95076222D01*
X188288037Y-95060810D01*
X188212501Y-94959907D01*
X188200092Y-94947498D01*
X188099189Y-94871962D01*
X188083779Y-94863548D01*
X187960528Y-94817577D01*
X187910149Y-94782597D01*
X187882696Y-94727753D01*
X187884885Y-94666460D01*
X187916178Y-94613717D01*
X188038495Y-94491401D01*
X188174035Y-94297830D01*
X188273903Y-94083663D01*
X188335063Y-93855408D01*
X188355659Y-93620000D01*
X188335063Y-93384592D01*
X188273903Y-93156337D01*
X188174035Y-92942171D01*
X188038495Y-92748599D01*
X187871401Y-92581505D01*
X187866968Y-92578401D01*
X187866961Y-92578395D01*
X187685842Y-92451575D01*
X187646976Y-92407257D01*
X187632965Y-92350000D01*
X187646976Y-92292743D01*
X187685842Y-92248425D01*
X187866961Y-92121604D01*
X187866961Y-92121603D01*
X187871401Y-92118495D01*
X188038495Y-91951401D01*
X188174035Y-91757830D01*
X188184958Y-91734404D01*
X188217635Y-91691816D01*
X188265251Y-91667030D01*
X188268703Y-91666104D01*
X188276762Y-91665044D01*
X188422841Y-91604536D01*
X188502172Y-91543663D01*
X188548282Y-91508282D01*
X188567510Y-91483222D01*
X188578189Y-91471044D01*
X189291044Y-90758189D01*
X189303222Y-90747510D01*
X189328282Y-90728282D01*
X189424536Y-90602841D01*
X189485044Y-90456762D01*
X189487835Y-90435563D01*
X189496866Y-90366966D01*
X189504622Y-90308059D01*
X189505683Y-90300000D01*
X189501560Y-90268691D01*
X189500500Y-90252506D01*
X189500500Y-87397487D01*
X189501561Y-87381302D01*
X189504621Y-87358059D01*
X189505682Y-87350000D01*
X189485044Y-87193238D01*
X189424536Y-87047159D01*
X189352450Y-86953214D01*
X189352448Y-86953212D01*
X189328282Y-86921718D01*
X189321835Y-86916771D01*
X189321833Y-86916769D01*
X189303232Y-86902496D01*
X189291038Y-86891802D01*
X184308199Y-81908964D01*
X184297504Y-81896769D01*
X184283228Y-81878164D01*
X184278282Y-81871718D01*
X184261363Y-81858736D01*
X184159288Y-81780411D01*
X184152841Y-81775464D01*
X184145333Y-81772354D01*
X184014271Y-81718066D01*
X184014268Y-81718065D01*
X184006762Y-81714956D01*
X183998708Y-81713895D01*
X183998702Y-81713894D01*
X183889361Y-81699500D01*
X183858059Y-81695379D01*
X183850000Y-81694318D01*
X183841941Y-81695379D01*
X183818698Y-81698439D01*
X183802513Y-81699500D01*
X183440116Y-81699500D01*
X183380948Y-81684473D01*
X183336121Y-81643035D01*
X183316498Y-81585229D01*
X183326836Y-81525065D01*
X183364628Y-81477125D01*
X183428282Y-81428282D01*
X183447510Y-81403222D01*
X183458189Y-81391044D01*
X183891044Y-80958189D01*
X183903222Y-80947510D01*
X183928282Y-80928282D01*
X184024536Y-80802841D01*
X184067134Y-80700000D01*
X185244671Y-80700000D01*
X185244937Y-80704058D01*
X185261933Y-80963373D01*
X185263966Y-80994380D01*
X185264757Y-80998361D01*
X185264758Y-80998362D01*
X185320726Y-81279738D01*
X185320728Y-81279745D01*
X185321519Y-81283722D01*
X185322819Y-81287553D01*
X185322823Y-81287566D01*
X185415042Y-81559230D01*
X185416348Y-81563077D01*
X185418141Y-81566713D01*
X185418144Y-81566720D01*
X185545032Y-81824025D01*
X185545038Y-81824036D01*
X185546828Y-81827665D01*
X185549079Y-81831034D01*
X185549082Y-81831039D01*
X185601150Y-81908964D01*
X185710727Y-82072957D01*
X185905242Y-82294758D01*
X186127043Y-82489273D01*
X186372335Y-82653172D01*
X186375968Y-82654963D01*
X186375974Y-82654967D01*
X186561578Y-82746496D01*
X186636923Y-82783652D01*
X186836992Y-82851566D01*
X186912433Y-82877176D01*
X186912435Y-82877176D01*
X186916278Y-82878481D01*
X187205620Y-82936034D01*
X187500000Y-82955329D01*
X187794380Y-82936034D01*
X188083722Y-82878481D01*
X188363077Y-82783652D01*
X188627665Y-82653172D01*
X188872957Y-82489273D01*
X189094758Y-82294758D01*
X189289273Y-82072957D01*
X189453172Y-81827665D01*
X189583652Y-81563077D01*
X189678481Y-81283722D01*
X189736034Y-80994380D01*
X189751765Y-80754360D01*
X189769887Y-80699999D01*
X189751766Y-80645640D01*
X189742220Y-80500000D01*
X189736034Y-80405620D01*
X189678481Y-80116278D01*
X189583652Y-79836923D01*
X189453172Y-79572336D01*
X189289273Y-79327043D01*
X189094758Y-79105242D01*
X188872957Y-78910727D01*
X188829289Y-78881549D01*
X188631039Y-78749082D01*
X188631034Y-78749079D01*
X188627665Y-78746828D01*
X188624036Y-78745038D01*
X188624025Y-78745032D01*
X188366720Y-78618144D01*
X188366713Y-78618141D01*
X188363077Y-78616348D01*
X188321935Y-78602382D01*
X188087566Y-78522823D01*
X188087553Y-78522819D01*
X188083722Y-78521519D01*
X188079745Y-78520728D01*
X188079738Y-78520726D01*
X187798362Y-78464758D01*
X187798361Y-78464757D01*
X187794380Y-78463966D01*
X187790330Y-78463700D01*
X187790326Y-78463700D01*
X187504058Y-78444937D01*
X187500000Y-78444671D01*
X187495942Y-78444937D01*
X187209673Y-78463700D01*
X187209667Y-78463700D01*
X187205620Y-78463966D01*
X187201640Y-78464757D01*
X187201637Y-78464758D01*
X186920261Y-78520726D01*
X186920250Y-78520728D01*
X186916278Y-78521519D01*
X186912449Y-78522818D01*
X186912433Y-78522823D01*
X186640769Y-78615042D01*
X186640762Y-78615044D01*
X186636923Y-78616348D01*
X186633286Y-78618141D01*
X186633280Y-78618144D01*
X186375976Y-78745032D01*
X186375964Y-78745038D01*
X186372336Y-78746828D01*
X186368973Y-78749075D01*
X186368961Y-78749082D01*
X186130424Y-78908467D01*
X186130414Y-78908473D01*
X186127043Y-78910727D01*
X186123992Y-78913402D01*
X186123985Y-78913408D01*
X185908290Y-79102568D01*
X185908282Y-79102575D01*
X185905242Y-79105242D01*
X185902575Y-79108282D01*
X185902568Y-79108290D01*
X185713408Y-79323985D01*
X185713402Y-79323992D01*
X185710727Y-79327043D01*
X185708473Y-79330414D01*
X185708467Y-79330424D01*
X185549082Y-79568961D01*
X185549075Y-79568973D01*
X185546828Y-79572336D01*
X185545038Y-79575964D01*
X185545032Y-79575976D01*
X185418144Y-79833280D01*
X185418141Y-79833286D01*
X185416348Y-79836923D01*
X185415044Y-79840762D01*
X185415042Y-79840769D01*
X185322823Y-80112433D01*
X185322818Y-80112449D01*
X185321519Y-80116278D01*
X185320728Y-80120250D01*
X185320726Y-80120261D01*
X185265183Y-80399500D01*
X185263966Y-80405620D01*
X185263700Y-80409667D01*
X185263700Y-80409673D01*
X185255200Y-80539361D01*
X185244671Y-80700000D01*
X184067134Y-80700000D01*
X184085044Y-80656762D01*
X184100500Y-80539361D01*
X184105682Y-80500000D01*
X184101561Y-80468698D01*
X184100500Y-80452513D01*
X184100500Y-78047494D01*
X184101561Y-78031308D01*
X184104622Y-78008059D01*
X184105683Y-78000000D01*
X184085044Y-77843238D01*
X184024536Y-77697159D01*
X184024535Y-77697158D01*
X183928282Y-77571718D01*
X183903222Y-77552489D01*
X183891034Y-77541799D01*
X183438117Y-77088882D01*
X183413415Y-77053603D01*
X183402270Y-77012009D01*
X183400635Y-76993308D01*
X183341739Y-76773504D01*
X183245568Y-76567266D01*
X183115047Y-76380861D01*
X182954139Y-76219953D01*
X182951729Y-76218266D01*
X182916991Y-76170450D01*
X182908641Y-76111038D01*
X182929162Y-76054660D01*
X182973748Y-76014514D01*
X183031962Y-76000000D01*
X183483674Y-76000000D01*
X183500000Y-76000000D01*
X183500000Y-75124500D01*
X183516613Y-75062500D01*
X183562000Y-75017113D01*
X183624000Y-75000500D01*
X189875500Y-75000500D01*
X189937500Y-75017113D01*
X189982887Y-75062500D01*
X189999500Y-75124500D01*
X189999500Y-80637530D01*
X189983557Y-80698355D01*
X189981964Y-80700000D01*
X189983557Y-80701645D01*
X189999500Y-80762470D01*
X189999500Y-103937530D01*
X189983557Y-103998355D01*
X189981964Y-103999999D01*
X189983557Y-104001645D01*
X189999500Y-104062470D01*
X189999500Y-129875500D01*
X189982887Y-129937500D01*
X189937500Y-129982887D01*
X189875500Y-129999500D01*
X150124500Y-129999500D01*
X150062500Y-129982887D01*
X150017113Y-129937500D01*
X150000500Y-129875500D01*
X150000500Y-126183966D01*
X153149500Y-126183966D01*
X153164937Y-126360408D01*
X153166336Y-126365630D01*
X153166337Y-126365634D01*
X153224694Y-126583430D01*
X153224697Y-126583438D01*
X153226097Y-126588663D01*
X153325965Y-126802829D01*
X153329072Y-126807266D01*
X153329073Y-126807268D01*
X153351269Y-126838967D01*
X153461505Y-126996401D01*
X153628599Y-127163495D01*
X153633031Y-127166598D01*
X153633033Y-127166600D01*
X153662897Y-127187511D01*
X153822170Y-127299035D01*
X153827070Y-127301320D01*
X153827072Y-127301321D01*
X153851273Y-127312606D01*
X154036337Y-127398903D01*
X154264592Y-127460063D01*
X154500000Y-127480659D01*
X154735408Y-127460063D01*
X154963663Y-127398903D01*
X155177829Y-127299035D01*
X155371401Y-127163495D01*
X155538495Y-126996401D01*
X155648732Y-126838964D01*
X155693048Y-126800101D01*
X155750305Y-126786090D01*
X155807562Y-126800101D01*
X155851880Y-126838967D01*
X155958784Y-126991642D01*
X155965719Y-126999907D01*
X156125090Y-127159278D01*
X156133356Y-127166215D01*
X156317991Y-127295498D01*
X156327323Y-127300886D01*
X156531602Y-127396143D01*
X156541736Y-127399831D01*
X156736219Y-127451943D01*
X156747448Y-127452311D01*
X156750000Y-127441369D01*
X157250000Y-127441369D01*
X157252551Y-127452311D01*
X157263780Y-127451943D01*
X157458263Y-127399831D01*
X157468397Y-127396143D01*
X157672667Y-127300889D01*
X157682017Y-127295491D01*
X157866642Y-127166215D01*
X157874900Y-127159286D01*
X158018935Y-127015251D01*
X158069329Y-126984671D01*
X158128150Y-126980816D01*
X158182104Y-127004557D01*
X158214411Y-127044811D01*
X158215186Y-127044334D01*
X158303497Y-127187511D01*
X158303500Y-127187515D01*
X158307288Y-127193656D01*
X158431344Y-127317712D01*
X158437485Y-127321500D01*
X158437488Y-127321502D01*
X158478020Y-127346502D01*
X158580666Y-127409814D01*
X158747203Y-127464999D01*
X158849991Y-127475500D01*
X160150008Y-127475499D01*
X160252797Y-127464999D01*
X160419334Y-127409814D01*
X160568656Y-127317712D01*
X160692712Y-127193656D01*
X160784814Y-127044334D01*
X160839999Y-126877797D01*
X160850500Y-126775009D01*
X160850500Y-126267178D01*
X179030094Y-126267178D01*
X179039958Y-126379922D01*
X179041833Y-126390553D01*
X179100168Y-126608263D01*
X179103856Y-126618397D01*
X179199110Y-126822667D01*
X179204508Y-126832017D01*
X179333784Y-127016642D01*
X179340719Y-127024907D01*
X179500090Y-127184278D01*
X179508356Y-127191215D01*
X179692991Y-127320498D01*
X179702323Y-127325886D01*
X179906602Y-127421143D01*
X179916736Y-127424831D01*
X180111219Y-127476943D01*
X180122448Y-127477311D01*
X180125000Y-127466369D01*
X180625000Y-127466369D01*
X180627551Y-127477311D01*
X180638780Y-127476943D01*
X180833263Y-127424831D01*
X180843397Y-127421143D01*
X181047667Y-127325889D01*
X181057017Y-127320491D01*
X181241642Y-127191215D01*
X181249900Y-127184286D01*
X181393935Y-127040251D01*
X181444329Y-127009671D01*
X181503150Y-127005816D01*
X181557104Y-127029557D01*
X181589411Y-127069811D01*
X181590186Y-127069334D01*
X181678497Y-127212511D01*
X181678500Y-127212515D01*
X181682288Y-127218656D01*
X181806344Y-127342712D01*
X181812485Y-127346500D01*
X181812488Y-127346502D01*
X181869558Y-127381702D01*
X181955666Y-127434814D01*
X182122203Y-127489999D01*
X182224991Y-127500500D01*
X183525008Y-127500499D01*
X183627797Y-127489999D01*
X183794334Y-127434814D01*
X183943656Y-127342712D01*
X184067712Y-127218656D01*
X184159814Y-127069334D01*
X184214999Y-126902797D01*
X184225500Y-126800009D01*
X184225499Y-125199992D01*
X184214999Y-125097203D01*
X184159814Y-124930666D01*
X184067712Y-124781344D01*
X183943656Y-124657288D01*
X183937515Y-124653500D01*
X183937511Y-124653497D01*
X183800480Y-124568977D01*
X183794334Y-124565186D01*
X183774552Y-124558631D01*
X183634225Y-124512131D01*
X183634224Y-124512130D01*
X183627797Y-124510001D01*
X183621064Y-124509313D01*
X183621059Y-124509312D01*
X183528140Y-124499819D01*
X183528123Y-124499818D01*
X183525009Y-124499500D01*
X183521860Y-124499500D01*
X182228140Y-124499500D01*
X182228120Y-124499500D01*
X182224992Y-124499501D01*
X182221860Y-124499820D01*
X182221858Y-124499821D01*
X182128938Y-124509312D01*
X182128928Y-124509313D01*
X182122203Y-124510001D01*
X182115781Y-124512128D01*
X182115776Y-124512130D01*
X181962521Y-124562914D01*
X181962517Y-124562915D01*
X181955666Y-124565186D01*
X181949522Y-124568975D01*
X181949519Y-124568977D01*
X181812488Y-124653497D01*
X181812480Y-124653503D01*
X181806344Y-124657288D01*
X181801242Y-124662389D01*
X181801238Y-124662393D01*
X181687393Y-124776238D01*
X181687389Y-124776242D01*
X181682288Y-124781344D01*
X181678503Y-124787480D01*
X181678497Y-124787488D01*
X181590186Y-124930666D01*
X181589412Y-124930188D01*
X181557100Y-124970446D01*
X181503146Y-124994184D01*
X181444328Y-124990327D01*
X181393936Y-124959748D01*
X181249909Y-124815721D01*
X181241643Y-124808784D01*
X181057008Y-124679501D01*
X181047676Y-124674113D01*
X180843397Y-124578856D01*
X180833263Y-124575168D01*
X180638780Y-124523056D01*
X180627551Y-124522688D01*
X180625000Y-124533631D01*
X180625000Y-127466369D01*
X180125000Y-127466369D01*
X180125000Y-126266326D01*
X180121549Y-126253450D01*
X180108674Y-126250000D01*
X179045835Y-126250000D01*
X179032667Y-126253734D01*
X179030094Y-126267178D01*
X160850500Y-126267178D01*
X160850499Y-125732821D01*
X179030094Y-125732821D01*
X179032667Y-125746265D01*
X179045835Y-125750000D01*
X180108674Y-125750000D01*
X180121549Y-125746549D01*
X180125000Y-125733674D01*
X180125000Y-124533631D01*
X180122448Y-124522688D01*
X180111219Y-124523056D01*
X179916736Y-124575168D01*
X179906602Y-124578856D01*
X179702332Y-124674110D01*
X179692982Y-124679508D01*
X179508357Y-124808784D01*
X179500092Y-124815719D01*
X179340719Y-124975092D01*
X179333784Y-124983357D01*
X179204508Y-125167982D01*
X179199110Y-125177332D01*
X179103856Y-125381602D01*
X179100168Y-125391736D01*
X179041833Y-125609446D01*
X179039958Y-125620077D01*
X179030094Y-125732821D01*
X160850499Y-125732821D01*
X160850499Y-125224992D01*
X160839999Y-125122203D01*
X160784814Y-124955666D01*
X160713677Y-124840334D01*
X160696502Y-124812488D01*
X160696500Y-124812485D01*
X160692712Y-124806344D01*
X160568656Y-124682288D01*
X160562515Y-124678500D01*
X160562511Y-124678497D01*
X160425480Y-124593977D01*
X160419334Y-124590186D01*
X160385142Y-124578856D01*
X160259225Y-124537131D01*
X160259224Y-124537130D01*
X160252797Y-124535001D01*
X160246064Y-124534313D01*
X160246059Y-124534312D01*
X160153140Y-124524819D01*
X160153123Y-124524818D01*
X160150009Y-124524500D01*
X160146860Y-124524500D01*
X158853140Y-124524500D01*
X158853120Y-124524500D01*
X158849992Y-124524501D01*
X158846860Y-124524820D01*
X158846858Y-124524821D01*
X158753938Y-124534312D01*
X158753928Y-124534313D01*
X158747203Y-124535001D01*
X158740781Y-124537128D01*
X158740776Y-124537130D01*
X158587521Y-124587914D01*
X158587517Y-124587915D01*
X158580666Y-124590186D01*
X158574522Y-124593975D01*
X158574519Y-124593977D01*
X158437488Y-124678497D01*
X158437480Y-124678503D01*
X158431344Y-124682288D01*
X158426242Y-124687389D01*
X158426238Y-124687393D01*
X158312393Y-124801238D01*
X158312389Y-124801242D01*
X158307288Y-124806344D01*
X158303503Y-124812480D01*
X158303497Y-124812488D01*
X158215186Y-124955666D01*
X158214412Y-124955188D01*
X158182100Y-124995446D01*
X158128146Y-125019184D01*
X158069328Y-125015327D01*
X158018936Y-124984748D01*
X157874909Y-124840721D01*
X157866643Y-124833784D01*
X157682008Y-124704501D01*
X157672676Y-124699113D01*
X157468397Y-124603856D01*
X157458263Y-124600168D01*
X157263780Y-124548056D01*
X157252551Y-124547688D01*
X157250000Y-124558631D01*
X157250000Y-127441369D01*
X156750000Y-127441369D01*
X156750000Y-124558631D01*
X156747448Y-124547688D01*
X156736219Y-124548056D01*
X156541736Y-124600168D01*
X156531602Y-124603856D01*
X156327332Y-124699110D01*
X156317982Y-124704508D01*
X156133357Y-124833784D01*
X156125092Y-124840719D01*
X155965719Y-125000092D01*
X155958788Y-125008352D01*
X155851880Y-125161033D01*
X155807562Y-125199898D01*
X155750305Y-125213909D01*
X155693048Y-125199898D01*
X155648730Y-125161032D01*
X155617042Y-125115776D01*
X155538495Y-125003599D01*
X155371401Y-124836505D01*
X155366970Y-124833402D01*
X155366966Y-124833399D01*
X155182259Y-124704066D01*
X155182257Y-124704064D01*
X155177830Y-124700965D01*
X155172933Y-124698681D01*
X155172927Y-124698678D01*
X154968572Y-124603386D01*
X154968570Y-124603385D01*
X154963663Y-124601097D01*
X154958438Y-124599697D01*
X154958430Y-124599694D01*
X154740634Y-124541337D01*
X154740630Y-124541336D01*
X154735408Y-124539937D01*
X154730020Y-124539465D01*
X154730017Y-124539465D01*
X154505395Y-124519813D01*
X154500000Y-124519341D01*
X154494605Y-124519813D01*
X154269982Y-124539465D01*
X154269977Y-124539465D01*
X154264592Y-124539937D01*
X154259371Y-124541335D01*
X154259365Y-124541337D01*
X154041569Y-124599694D01*
X154041557Y-124599698D01*
X154036337Y-124601097D01*
X154031432Y-124603383D01*
X154031427Y-124603386D01*
X153827081Y-124698675D01*
X153827077Y-124698677D01*
X153822171Y-124700965D01*
X153817738Y-124704068D01*
X153817731Y-124704073D01*
X153633034Y-124833399D01*
X153633029Y-124833402D01*
X153628599Y-124836505D01*
X153624775Y-124840328D01*
X153624769Y-124840334D01*
X153465334Y-124999769D01*
X153465328Y-124999775D01*
X153461505Y-125003599D01*
X153458402Y-125008029D01*
X153458399Y-125008034D01*
X153329073Y-125192731D01*
X153329068Y-125192738D01*
X153325965Y-125197171D01*
X153323677Y-125202077D01*
X153323675Y-125202081D01*
X153228386Y-125406427D01*
X153228383Y-125406432D01*
X153226097Y-125411337D01*
X153224698Y-125416557D01*
X153224694Y-125416569D01*
X153166337Y-125634365D01*
X153166335Y-125634371D01*
X153164937Y-125639592D01*
X153164465Y-125644977D01*
X153164465Y-125644982D01*
X153155604Y-125746265D01*
X153149500Y-125816034D01*
X153149500Y-126183966D01*
X150000500Y-126183966D01*
X150000500Y-118500000D01*
X184994341Y-118500000D01*
X185014937Y-118735408D01*
X185016336Y-118740630D01*
X185016337Y-118740634D01*
X185074694Y-118958430D01*
X185074697Y-118958438D01*
X185076097Y-118963663D01*
X185175965Y-119177829D01*
X185311505Y-119371401D01*
X185478599Y-119538495D01*
X185672171Y-119674035D01*
X185886337Y-119773903D01*
X186114592Y-119835063D01*
X186291034Y-119850500D01*
X186706258Y-119850500D01*
X186708966Y-119850500D01*
X186885408Y-119835063D01*
X187113663Y-119773903D01*
X187327829Y-119674035D01*
X187521401Y-119538495D01*
X187688495Y-119371401D01*
X187824035Y-119177830D01*
X187923903Y-118963663D01*
X187985063Y-118735408D01*
X188005659Y-118500000D01*
X187985063Y-118264592D01*
X187923903Y-118036337D01*
X187824035Y-117822171D01*
X187688495Y-117628599D01*
X187540356Y-117480459D01*
X187509775Y-117430064D01*
X187505922Y-117371241D01*
X187529667Y-117317286D01*
X187569644Y-117285205D01*
X187569122Y-117284358D01*
X187712194Y-117196109D01*
X187723455Y-117187205D01*
X187837205Y-117073455D01*
X187846109Y-117062194D01*
X187930567Y-116925266D01*
X187936629Y-116912267D01*
X187987375Y-116759125D01*
X187990194Y-116745958D01*
X187999680Y-116653109D01*
X188000000Y-116646832D01*
X188000000Y-116266326D01*
X187996549Y-116253450D01*
X187983674Y-116250000D01*
X185016327Y-116250000D01*
X185003451Y-116253450D01*
X185000001Y-116266326D01*
X185000001Y-116646829D01*
X185000321Y-116653111D01*
X185009805Y-116745959D01*
X185012623Y-116759122D01*
X185063370Y-116912267D01*
X185069432Y-116925266D01*
X185153890Y-117062194D01*
X185162794Y-117073455D01*
X185276544Y-117187205D01*
X185287805Y-117196109D01*
X185430878Y-117284358D01*
X185430355Y-117285204D01*
X185470336Y-117317290D01*
X185494078Y-117371244D01*
X185490223Y-117430065D01*
X185459644Y-117480459D01*
X185311505Y-117628599D01*
X185308406Y-117633023D01*
X185308399Y-117633033D01*
X185179066Y-117817740D01*
X185179061Y-117817747D01*
X185175965Y-117822170D01*
X185173683Y-117827061D01*
X185173678Y-117827072D01*
X185078386Y-118031427D01*
X185078383Y-118031432D01*
X185076097Y-118036337D01*
X185074698Y-118041557D01*
X185074694Y-118041569D01*
X185016337Y-118259365D01*
X185016335Y-118259371D01*
X185014937Y-118264592D01*
X184994341Y-118500000D01*
X150000500Y-118500000D01*
X150000500Y-115733674D01*
X185000000Y-115733674D01*
X185003450Y-115746549D01*
X185016326Y-115750000D01*
X186233674Y-115750000D01*
X186246549Y-115746549D01*
X186250000Y-115733674D01*
X186750000Y-115733674D01*
X186753450Y-115746549D01*
X186766326Y-115750000D01*
X187983673Y-115750000D01*
X187996548Y-115746549D01*
X187999999Y-115733674D01*
X187999999Y-115353171D01*
X187999678Y-115346888D01*
X187990194Y-115254040D01*
X187987376Y-115240877D01*
X187936629Y-115087732D01*
X187930567Y-115074733D01*
X187846109Y-114937805D01*
X187837205Y-114926544D01*
X187723455Y-114812794D01*
X187712194Y-114803890D01*
X187575266Y-114719432D01*
X187562267Y-114713370D01*
X187409125Y-114662624D01*
X187395958Y-114659805D01*
X187303109Y-114650319D01*
X187296832Y-114650000D01*
X186766326Y-114650000D01*
X186753450Y-114653450D01*
X186750000Y-114666326D01*
X186750000Y-115733674D01*
X186250000Y-115733674D01*
X186250000Y-114666327D01*
X186246549Y-114653451D01*
X186233674Y-114650001D01*
X185703171Y-114650001D01*
X185696888Y-114650321D01*
X185604040Y-114659805D01*
X185590877Y-114662623D01*
X185437732Y-114713370D01*
X185424733Y-114719432D01*
X185287805Y-114803890D01*
X185276544Y-114812794D01*
X185162794Y-114926544D01*
X185153890Y-114937805D01*
X185069432Y-115074733D01*
X185063370Y-115087732D01*
X185012624Y-115240874D01*
X185009805Y-115254041D01*
X185000319Y-115346890D01*
X185000000Y-115353168D01*
X185000000Y-115733674D01*
X150000500Y-115733674D01*
X150000500Y-111792176D01*
X151907281Y-111792176D01*
X151914958Y-111879921D01*
X151916833Y-111890553D01*
X151975168Y-112108263D01*
X151978856Y-112118397D01*
X152074110Y-112322667D01*
X152079508Y-112332017D01*
X152208784Y-112516642D01*
X152215719Y-112524907D01*
X152375090Y-112684278D01*
X152383356Y-112691215D01*
X152567991Y-112820498D01*
X152577323Y-112825886D01*
X152781602Y-112921143D01*
X152791736Y-112924831D01*
X152986219Y-112976943D01*
X152997448Y-112977311D01*
X153000000Y-112966369D01*
X153500000Y-112966369D01*
X153502551Y-112977311D01*
X153513780Y-112976943D01*
X153708263Y-112924831D01*
X153718397Y-112921143D01*
X153922667Y-112825889D01*
X153932017Y-112820491D01*
X154116642Y-112691215D01*
X154124907Y-112684280D01*
X154284280Y-112524907D01*
X154291215Y-112516642D01*
X154398119Y-112363967D01*
X154442437Y-112325101D01*
X154499694Y-112311090D01*
X154556951Y-112325101D01*
X154601268Y-112363966D01*
X154711505Y-112521401D01*
X154878599Y-112688495D01*
X155072170Y-112824035D01*
X155077070Y-112826320D01*
X155077072Y-112826321D01*
X155101273Y-112837606D01*
X155286337Y-112923903D01*
X155514592Y-112985063D01*
X155750000Y-113005659D01*
X155985408Y-112985063D01*
X156213663Y-112923903D01*
X156427829Y-112824035D01*
X156621401Y-112688495D01*
X156788495Y-112521401D01*
X156898425Y-112364403D01*
X156942743Y-112325538D01*
X157000000Y-112311527D01*
X157057257Y-112325538D01*
X157101574Y-112364403D01*
X157211505Y-112521401D01*
X157378599Y-112688495D01*
X157572170Y-112824035D01*
X157577070Y-112826320D01*
X157577072Y-112826321D01*
X157601273Y-112837606D01*
X157786337Y-112923903D01*
X158014592Y-112985063D01*
X158250000Y-113005659D01*
X158485408Y-112985063D01*
X158713663Y-112923903D01*
X158927829Y-112824035D01*
X159121401Y-112688495D01*
X159269165Y-112540730D01*
X159319554Y-112510154D01*
X159378373Y-112506299D01*
X159432327Y-112530038D01*
X159464303Y-112569878D01*
X159465186Y-112569334D01*
X159553497Y-112712511D01*
X159553500Y-112712515D01*
X159557288Y-112718656D01*
X159681344Y-112842712D01*
X159687485Y-112846500D01*
X159687488Y-112846502D01*
X159744558Y-112881702D01*
X159830666Y-112934814D01*
X159997203Y-112989999D01*
X160099991Y-113000500D01*
X161400008Y-113000499D01*
X161502797Y-112989999D01*
X161669334Y-112934814D01*
X161818656Y-112842712D01*
X161942712Y-112718656D01*
X162034814Y-112569334D01*
X162089999Y-112402797D01*
X162100500Y-112300009D01*
X162100499Y-110749992D01*
X162089999Y-110647203D01*
X162034814Y-110480666D01*
X161963677Y-110365334D01*
X161946502Y-110337488D01*
X161946500Y-110337485D01*
X161942712Y-110331344D01*
X161818656Y-110207288D01*
X161812515Y-110203500D01*
X161812511Y-110203497D01*
X161675480Y-110118977D01*
X161669334Y-110115186D01*
X161574107Y-110083631D01*
X161509225Y-110062131D01*
X161509224Y-110062130D01*
X161502797Y-110060001D01*
X161496064Y-110059313D01*
X161496059Y-110059312D01*
X161403140Y-110049819D01*
X161403123Y-110049818D01*
X161400009Y-110049500D01*
X161396860Y-110049500D01*
X160103140Y-110049500D01*
X160103120Y-110049500D01*
X160099992Y-110049501D01*
X160096860Y-110049820D01*
X160096858Y-110049821D01*
X160003938Y-110059312D01*
X160003928Y-110059313D01*
X159997203Y-110060001D01*
X159990781Y-110062128D01*
X159990776Y-110062130D01*
X159837521Y-110112914D01*
X159837517Y-110112915D01*
X159830666Y-110115186D01*
X159824522Y-110118975D01*
X159824519Y-110118977D01*
X159687488Y-110203497D01*
X159687480Y-110203503D01*
X159681344Y-110207288D01*
X159676242Y-110212389D01*
X159676238Y-110212393D01*
X159562393Y-110326238D01*
X159562389Y-110326242D01*
X159557288Y-110331344D01*
X159553503Y-110337480D01*
X159553497Y-110337488D01*
X159465186Y-110480666D01*
X159464304Y-110480122D01*
X159432322Y-110519965D01*
X159378369Y-110543701D01*
X159319552Y-110539844D01*
X159269161Y-110509265D01*
X159125232Y-110365336D01*
X159125230Y-110365334D01*
X159121401Y-110361505D01*
X159116970Y-110358402D01*
X159116966Y-110358399D01*
X158932259Y-110229066D01*
X158932257Y-110229064D01*
X158927830Y-110225965D01*
X158922933Y-110223681D01*
X158922927Y-110223678D01*
X158718572Y-110128386D01*
X158718570Y-110128385D01*
X158713663Y-110126097D01*
X158708438Y-110124697D01*
X158708430Y-110124694D01*
X158490634Y-110066337D01*
X158490630Y-110066336D01*
X158485408Y-110064937D01*
X158480020Y-110064465D01*
X158480017Y-110064465D01*
X158255395Y-110044813D01*
X158250000Y-110044341D01*
X158244605Y-110044813D01*
X158019982Y-110064465D01*
X158019977Y-110064465D01*
X158014592Y-110064937D01*
X158009371Y-110066335D01*
X158009365Y-110066337D01*
X157791569Y-110124694D01*
X157791557Y-110124698D01*
X157786337Y-110126097D01*
X157781432Y-110128383D01*
X157781427Y-110128386D01*
X157577081Y-110223675D01*
X157577077Y-110223677D01*
X157572171Y-110225965D01*
X157567738Y-110229068D01*
X157567731Y-110229073D01*
X157383034Y-110358399D01*
X157383029Y-110358402D01*
X157378599Y-110361505D01*
X157374775Y-110365328D01*
X157374769Y-110365334D01*
X157215334Y-110524769D01*
X157215328Y-110524775D01*
X157211505Y-110528599D01*
X157208403Y-110533028D01*
X157208403Y-110533029D01*
X157101575Y-110685596D01*
X157057257Y-110724461D01*
X157000000Y-110738472D01*
X156942743Y-110724461D01*
X156898425Y-110685596D01*
X156799069Y-110543701D01*
X156788495Y-110528599D01*
X156621401Y-110361505D01*
X156616970Y-110358402D01*
X156616966Y-110358399D01*
X156432259Y-110229066D01*
X156432257Y-110229064D01*
X156427830Y-110225965D01*
X156422933Y-110223681D01*
X156422927Y-110223678D01*
X156218572Y-110128386D01*
X156218570Y-110128385D01*
X156213663Y-110126097D01*
X156208438Y-110124697D01*
X156208430Y-110124694D01*
X155990634Y-110066337D01*
X155990630Y-110066336D01*
X155985408Y-110064937D01*
X155980020Y-110064465D01*
X155980017Y-110064465D01*
X155755395Y-110044813D01*
X155750000Y-110044341D01*
X155744605Y-110044813D01*
X155519982Y-110064465D01*
X155519977Y-110064465D01*
X155514592Y-110064937D01*
X155509371Y-110066335D01*
X155509365Y-110066337D01*
X155291569Y-110124694D01*
X155291557Y-110124698D01*
X155286337Y-110126097D01*
X155281432Y-110128383D01*
X155281427Y-110128386D01*
X155077081Y-110223675D01*
X155077077Y-110223677D01*
X155072171Y-110225965D01*
X155067738Y-110229068D01*
X155067731Y-110229073D01*
X154883034Y-110358399D01*
X154883029Y-110358402D01*
X154878599Y-110361505D01*
X154874775Y-110365328D01*
X154874769Y-110365334D01*
X154715334Y-110524769D01*
X154715328Y-110524775D01*
X154711505Y-110528599D01*
X154708403Y-110533028D01*
X154708403Y-110533029D01*
X154601269Y-110686033D01*
X154556951Y-110724898D01*
X154499694Y-110738909D01*
X154442437Y-110724898D01*
X154398119Y-110686032D01*
X154291215Y-110533357D01*
X154284280Y-110525092D01*
X154124909Y-110365721D01*
X154116643Y-110358784D01*
X153932008Y-110229501D01*
X153922676Y-110224113D01*
X153718397Y-110128856D01*
X153708263Y-110125168D01*
X153513780Y-110073056D01*
X153502551Y-110072688D01*
X153500000Y-110083631D01*
X153500000Y-112966369D01*
X153000000Y-112966369D01*
X153000000Y-111791326D01*
X152996549Y-111778450D01*
X152983674Y-111775000D01*
X151923022Y-111775000D01*
X151909853Y-111778734D01*
X151907281Y-111792176D01*
X150000500Y-111792176D01*
X150000500Y-111257823D01*
X151907281Y-111257823D01*
X151909853Y-111271265D01*
X151923022Y-111275000D01*
X152983674Y-111275000D01*
X152996549Y-111271549D01*
X153000000Y-111258674D01*
X153000000Y-110083631D01*
X152997448Y-110072688D01*
X152986219Y-110073056D01*
X152791736Y-110125168D01*
X152781602Y-110128856D01*
X152577332Y-110224110D01*
X152567982Y-110229508D01*
X152383357Y-110358784D01*
X152375092Y-110365719D01*
X152215719Y-110525092D01*
X152208784Y-110533357D01*
X152079508Y-110717982D01*
X152074110Y-110727332D01*
X151978856Y-110931602D01*
X151975168Y-110941736D01*
X151916833Y-111159446D01*
X151914958Y-111170078D01*
X151907281Y-111257823D01*
X150000500Y-111257823D01*
X150000500Y-104752551D01*
X152247688Y-104752551D01*
X152248056Y-104763780D01*
X152300168Y-104958263D01*
X152303856Y-104968397D01*
X152399110Y-105172667D01*
X152404508Y-105182017D01*
X152533784Y-105366642D01*
X152540719Y-105374907D01*
X152700092Y-105534280D01*
X152708357Y-105541215D01*
X152892982Y-105670491D01*
X152902332Y-105675889D01*
X153106602Y-105771143D01*
X153116736Y-105774831D01*
X153334446Y-105833166D01*
X153345078Y-105835041D01*
X153432823Y-105842718D01*
X153446265Y-105840146D01*
X153450000Y-105826978D01*
X153950000Y-105826978D01*
X153953734Y-105840146D01*
X153967176Y-105842718D01*
X154054921Y-105835041D01*
X154065553Y-105833166D01*
X154283263Y-105774831D01*
X154293397Y-105771143D01*
X154497667Y-105675889D01*
X154507017Y-105670491D01*
X154691642Y-105541215D01*
X154699907Y-105534280D01*
X154859278Y-105374909D01*
X154866215Y-105366643D01*
X154995498Y-105182008D01*
X155000886Y-105172676D01*
X155096143Y-104968397D01*
X155099831Y-104958263D01*
X155151943Y-104763780D01*
X155152311Y-104752551D01*
X155141369Y-104750000D01*
X153966326Y-104750000D01*
X153953450Y-104753450D01*
X153950000Y-104766326D01*
X153950000Y-105826978D01*
X153450000Y-105826978D01*
X153450000Y-104766326D01*
X153446549Y-104753450D01*
X153433674Y-104750000D01*
X152258631Y-104750000D01*
X152247688Y-104752551D01*
X150000500Y-104752551D01*
X150000500Y-75124500D01*
X150017113Y-75062500D01*
X150062500Y-75017113D01*
X150124500Y-75000500D01*
X157376000Y-75000500D01*
X157438000Y-75017113D01*
G37*
%TD.AperFunction*%
%TA.AperFunction,Conductor*%
G36*
X180471241Y-81615786D02*
G01*
X180516179Y-81657875D01*
X180535333Y-81716390D01*
X180523980Y-81776905D01*
X180490550Y-81848594D01*
X180490547Y-81848599D01*
X180488261Y-81853504D01*
X180486862Y-81858724D01*
X180486858Y-81858736D01*
X180430764Y-82068083D01*
X180430762Y-82068094D01*
X180429365Y-82073308D01*
X180409532Y-82300000D01*
X180410004Y-82305395D01*
X180425856Y-82486591D01*
X180429365Y-82526692D01*
X180430762Y-82531907D01*
X180430764Y-82531916D01*
X180486858Y-82741263D01*
X180486861Y-82741271D01*
X180488261Y-82746496D01*
X180584432Y-82952734D01*
X180714953Y-83139139D01*
X180875861Y-83300047D01*
X181062266Y-83430568D01*
X181067172Y-83432855D01*
X181067176Y-83432858D01*
X181120274Y-83457618D01*
X181172450Y-83503375D01*
X181191869Y-83570000D01*
X181172450Y-83636625D01*
X181120274Y-83682382D01*
X181067176Y-83707141D01*
X181067163Y-83707148D01*
X181062266Y-83709432D01*
X181057833Y-83712535D01*
X181057826Y-83712540D01*
X180880296Y-83836847D01*
X180880291Y-83836850D01*
X180875861Y-83839953D01*
X180872037Y-83843776D01*
X180872031Y-83843782D01*
X180718782Y-83997031D01*
X180718776Y-83997037D01*
X180714953Y-84000861D01*
X180711850Y-84005291D01*
X180711847Y-84005296D01*
X180587540Y-84182826D01*
X180587535Y-84182833D01*
X180584432Y-84187266D01*
X180582144Y-84192172D01*
X180582142Y-84192176D01*
X180490550Y-84388594D01*
X180490547Y-84388599D01*
X180488261Y-84393504D01*
X180486862Y-84398724D01*
X180486858Y-84398736D01*
X180430764Y-84608083D01*
X180430762Y-84608094D01*
X180429365Y-84613308D01*
X180428893Y-84618693D01*
X180428893Y-84618698D01*
X180418225Y-84740634D01*
X180409532Y-84840000D01*
X180410004Y-84845395D01*
X180420780Y-84968572D01*
X180429365Y-85066692D01*
X180430762Y-85071907D01*
X180430764Y-85071916D01*
X180486858Y-85281263D01*
X180486861Y-85281271D01*
X180488261Y-85286496D01*
X180584432Y-85492734D01*
X180714953Y-85679139D01*
X180875861Y-85840047D01*
X181062266Y-85970568D01*
X181067172Y-85972855D01*
X181067176Y-85972858D01*
X181120274Y-85997618D01*
X181172450Y-86043375D01*
X181191869Y-86110000D01*
X181172450Y-86176625D01*
X181120274Y-86222382D01*
X181067176Y-86247141D01*
X181067163Y-86247148D01*
X181062266Y-86249432D01*
X181057833Y-86252535D01*
X181057826Y-86252540D01*
X180880296Y-86376847D01*
X180880291Y-86376850D01*
X180875861Y-86379953D01*
X180872037Y-86383776D01*
X180872031Y-86383782D01*
X180718782Y-86537031D01*
X180718776Y-86537037D01*
X180714953Y-86540861D01*
X180711850Y-86545291D01*
X180711847Y-86545296D01*
X180587540Y-86722826D01*
X180587535Y-86722833D01*
X180584432Y-86727266D01*
X180582144Y-86732172D01*
X180582142Y-86732176D01*
X180490550Y-86928594D01*
X180490547Y-86928599D01*
X180488261Y-86933504D01*
X180486862Y-86938724D01*
X180486858Y-86938736D01*
X180430764Y-87148083D01*
X180430762Y-87148094D01*
X180429365Y-87153308D01*
X180428893Y-87158693D01*
X180428893Y-87158698D01*
X180422654Y-87230017D01*
X180409532Y-87380000D01*
X180410004Y-87385395D01*
X180419890Y-87498399D01*
X180429365Y-87606692D01*
X180430762Y-87611907D01*
X180430764Y-87611916D01*
X180486858Y-87821263D01*
X180486861Y-87821271D01*
X180488261Y-87826496D01*
X180584432Y-88032734D01*
X180587539Y-88037171D01*
X180587540Y-88037173D01*
X180605751Y-88063181D01*
X180714953Y-88219139D01*
X180875861Y-88380047D01*
X181062266Y-88510568D01*
X181067172Y-88512855D01*
X181067176Y-88512858D01*
X181120274Y-88537618D01*
X181172450Y-88583375D01*
X181191869Y-88650000D01*
X181172450Y-88716625D01*
X181120274Y-88762382D01*
X181067176Y-88787141D01*
X181067163Y-88787148D01*
X181062266Y-88789432D01*
X181057833Y-88792535D01*
X181057826Y-88792540D01*
X180880296Y-88916847D01*
X180880291Y-88916850D01*
X180875861Y-88919953D01*
X180872037Y-88923776D01*
X180872031Y-88923782D01*
X180718782Y-89077031D01*
X180718776Y-89077037D01*
X180714953Y-89080861D01*
X180711850Y-89085291D01*
X180711847Y-89085296D01*
X180587540Y-89262826D01*
X180587535Y-89262833D01*
X180584432Y-89267266D01*
X180582144Y-89272172D01*
X180582142Y-89272176D01*
X180490550Y-89468594D01*
X180490547Y-89468599D01*
X180488261Y-89473504D01*
X180486862Y-89478724D01*
X180486858Y-89478736D01*
X180430764Y-89688083D01*
X180430762Y-89688094D01*
X180429365Y-89693308D01*
X180428893Y-89698693D01*
X180428893Y-89698698D01*
X180414146Y-89867257D01*
X180409532Y-89920000D01*
X180410004Y-89925395D01*
X180420685Y-90047487D01*
X180429365Y-90146692D01*
X180430762Y-90151907D01*
X180430764Y-90151916D01*
X180486858Y-90361263D01*
X180486861Y-90361271D01*
X180488261Y-90366496D01*
X180584432Y-90572734D01*
X180587539Y-90577171D01*
X180587540Y-90577173D01*
X180605513Y-90602841D01*
X180714953Y-90759139D01*
X180875861Y-90920047D01*
X181062266Y-91050568D01*
X181067175Y-91052857D01*
X181067180Y-91052860D01*
X181120864Y-91077893D01*
X181173040Y-91123649D01*
X181192460Y-91190274D01*
X181173041Y-91256899D01*
X181120866Y-91302657D01*
X181067416Y-91327581D01*
X181058087Y-91332967D01*
X180880618Y-91457232D01*
X180872352Y-91464169D01*
X180719169Y-91617352D01*
X180712232Y-91625618D01*
X180587967Y-91803087D01*
X180582579Y-91812419D01*
X180491022Y-92008765D01*
X180487330Y-92018907D01*
X180439820Y-92196219D01*
X180439452Y-92207448D01*
X180450395Y-92210000D01*
X183379605Y-92210000D01*
X183390547Y-92207448D01*
X183390179Y-92196219D01*
X183342669Y-92018907D01*
X183338977Y-92008765D01*
X183247420Y-91812419D01*
X183242032Y-91803087D01*
X183117767Y-91625618D01*
X183110830Y-91617352D01*
X182957647Y-91464169D01*
X182949381Y-91457232D01*
X182771912Y-91332967D01*
X182762579Y-91327579D01*
X182709134Y-91302657D01*
X182656958Y-91256899D01*
X182637539Y-91190274D01*
X182656959Y-91123649D01*
X182709131Y-91077894D01*
X182767734Y-91050568D01*
X182954139Y-90920047D01*
X183115047Y-90759139D01*
X183245568Y-90572734D01*
X183341739Y-90366496D01*
X183400635Y-90146692D01*
X183420468Y-89920000D01*
X183400635Y-89693308D01*
X183360038Y-89541798D01*
X183343141Y-89478736D01*
X183343140Y-89478732D01*
X183341739Y-89473504D01*
X183245568Y-89267266D01*
X183115047Y-89080861D01*
X182954139Y-88919953D01*
X182814489Y-88822170D01*
X182772173Y-88792540D01*
X182772171Y-88792539D01*
X182767734Y-88789432D01*
X182709724Y-88762381D01*
X182657549Y-88716625D01*
X182638130Y-88650000D01*
X182657549Y-88583375D01*
X182709725Y-88537618D01*
X182767734Y-88510568D01*
X182954139Y-88380047D01*
X183115047Y-88219139D01*
X183245568Y-88032734D01*
X183341739Y-87826496D01*
X183400635Y-87606692D01*
X183420468Y-87380000D01*
X183400635Y-87153308D01*
X183361002Y-87005395D01*
X183343141Y-86938736D01*
X183343140Y-86938734D01*
X183341739Y-86933504D01*
X183245568Y-86727266D01*
X183115047Y-86540861D01*
X182954139Y-86379953D01*
X182767734Y-86249432D01*
X182709724Y-86222381D01*
X182657549Y-86176625D01*
X182638130Y-86110000D01*
X182657549Y-86043375D01*
X182709725Y-85997618D01*
X182767734Y-85970568D01*
X182954139Y-85840047D01*
X183115047Y-85679139D01*
X183245117Y-85493377D01*
X183289436Y-85454511D01*
X183346693Y-85440500D01*
X185339903Y-85440500D01*
X185387356Y-85449939D01*
X185427584Y-85476819D01*
X186363181Y-86412417D01*
X186390061Y-86452645D01*
X186399500Y-86500098D01*
X186399500Y-87250909D01*
X186380081Y-87317533D01*
X186331359Y-87360263D01*
X186331767Y-87360970D01*
X186328214Y-87363020D01*
X186327908Y-87363289D01*
X186327617Y-87363425D01*
X186327079Y-87363676D01*
X186327075Y-87363677D01*
X186322171Y-87365965D01*
X186317738Y-87369068D01*
X186317731Y-87369073D01*
X186133034Y-87498399D01*
X186133029Y-87498402D01*
X186128599Y-87501505D01*
X186124775Y-87505328D01*
X186124769Y-87505334D01*
X185965334Y-87664769D01*
X185965328Y-87664775D01*
X185961505Y-87668599D01*
X185958402Y-87673029D01*
X185958399Y-87673034D01*
X185829073Y-87857731D01*
X185829068Y-87857738D01*
X185825965Y-87862171D01*
X185823677Y-87867077D01*
X185823675Y-87867081D01*
X185728386Y-88071427D01*
X185728383Y-88071432D01*
X185726097Y-88076337D01*
X185724698Y-88081557D01*
X185724694Y-88081569D01*
X185666337Y-88299365D01*
X185666335Y-88299371D01*
X185664937Y-88304592D01*
X185664465Y-88309977D01*
X185664465Y-88309982D01*
X185647188Y-88507459D01*
X185644341Y-88540000D01*
X185644813Y-88545395D01*
X185652480Y-88633034D01*
X185664937Y-88775408D01*
X185666336Y-88780630D01*
X185666337Y-88780634D01*
X185724694Y-88998430D01*
X185724697Y-88998438D01*
X185726097Y-89003663D01*
X185728385Y-89008570D01*
X185728386Y-89008572D01*
X185823678Y-89212927D01*
X185823681Y-89212933D01*
X185825965Y-89217830D01*
X185829064Y-89222257D01*
X185829066Y-89222259D01*
X185958399Y-89406966D01*
X185958402Y-89406970D01*
X185961505Y-89411401D01*
X186128599Y-89578495D01*
X186133032Y-89581599D01*
X186133038Y-89581604D01*
X186314158Y-89708425D01*
X186353024Y-89752743D01*
X186367035Y-89810000D01*
X186353024Y-89867257D01*
X186314159Y-89911575D01*
X186187875Y-90000000D01*
X186128599Y-90041505D01*
X186124775Y-90045328D01*
X186124769Y-90045334D01*
X185965334Y-90204769D01*
X185965328Y-90204775D01*
X185961505Y-90208599D01*
X185958402Y-90213029D01*
X185958399Y-90213034D01*
X185829073Y-90397731D01*
X185829068Y-90397738D01*
X185825965Y-90402171D01*
X185823677Y-90407077D01*
X185823675Y-90407081D01*
X185728386Y-90611427D01*
X185728383Y-90611432D01*
X185726097Y-90616337D01*
X185724698Y-90621557D01*
X185724694Y-90621569D01*
X185666337Y-90839365D01*
X185666335Y-90839371D01*
X185664937Y-90844592D01*
X185664465Y-90849977D01*
X185664465Y-90849982D01*
X185654708Y-90961505D01*
X185644341Y-91080000D01*
X185644813Y-91085395D01*
X185664218Y-91307198D01*
X185664937Y-91315408D01*
X185666336Y-91320630D01*
X185666337Y-91320634D01*
X185724694Y-91538430D01*
X185724697Y-91538438D01*
X185726097Y-91543663D01*
X185728385Y-91548570D01*
X185728386Y-91548572D01*
X185823678Y-91752927D01*
X185823681Y-91752933D01*
X185825965Y-91757830D01*
X185829064Y-91762257D01*
X185829066Y-91762259D01*
X185958399Y-91946966D01*
X185958402Y-91946970D01*
X185961505Y-91951401D01*
X186128599Y-92118495D01*
X186133032Y-92121599D01*
X186133038Y-92121604D01*
X186314158Y-92248425D01*
X186353024Y-92292743D01*
X186367035Y-92350000D01*
X186353024Y-92407257D01*
X186314159Y-92451575D01*
X186133041Y-92578395D01*
X186128599Y-92581505D01*
X186124775Y-92585328D01*
X186124769Y-92585334D01*
X185965334Y-92744769D01*
X185965328Y-92744775D01*
X185961505Y-92748599D01*
X185958404Y-92753027D01*
X185958397Y-92753036D01*
X185948886Y-92766621D01*
X185904568Y-92805489D01*
X185847310Y-92819500D01*
X185470194Y-92819500D01*
X185289806Y-92819500D01*
X185283020Y-92821048D01*
X185283008Y-92821050D01*
X185252479Y-92828017D01*
X185238781Y-92830345D01*
X185207665Y-92833852D01*
X185207663Y-92833852D01*
X185200745Y-92834632D01*
X185164619Y-92847272D01*
X185151268Y-92851118D01*
X185120728Y-92858089D01*
X185120717Y-92858092D01*
X185113939Y-92859640D01*
X185107671Y-92862657D01*
X185107666Y-92862660D01*
X185079451Y-92876247D01*
X185066613Y-92881565D01*
X185037047Y-92891911D01*
X185037037Y-92891915D01*
X185030478Y-92894211D01*
X185024589Y-92897910D01*
X185024587Y-92897912D01*
X184998064Y-92914577D01*
X184985900Y-92921299D01*
X184957693Y-92934883D01*
X184957682Y-92934889D01*
X184951413Y-92937909D01*
X184945967Y-92942251D01*
X184945965Y-92942253D01*
X184921487Y-92961773D01*
X184910152Y-92969816D01*
X184883635Y-92986478D01*
X184883631Y-92986480D01*
X184877738Y-92990184D01*
X184872817Y-92995104D01*
X184872813Y-92995108D01*
X184057735Y-93810186D01*
X184057736Y-93810186D01*
X183930184Y-93937738D01*
X183926479Y-93943632D01*
X183926479Y-93943634D01*
X183909816Y-93970152D01*
X183901773Y-93981487D01*
X183882253Y-94005965D01*
X183882251Y-94005967D01*
X183877909Y-94011413D01*
X183874889Y-94017682D01*
X183874883Y-94017693D01*
X183861299Y-94045900D01*
X183854577Y-94058064D01*
X183834211Y-94090478D01*
X183831915Y-94097037D01*
X183831911Y-94097047D01*
X183821565Y-94126613D01*
X183816247Y-94139451D01*
X183802660Y-94167666D01*
X183802657Y-94167671D01*
X183799640Y-94173939D01*
X183798092Y-94180717D01*
X183798089Y-94180728D01*
X183791118Y-94211268D01*
X183787272Y-94224619D01*
X183774632Y-94260745D01*
X183773852Y-94267663D01*
X183773852Y-94267665D01*
X183770345Y-94298781D01*
X183768017Y-94312479D01*
X183761050Y-94343008D01*
X183761048Y-94343020D01*
X183759500Y-94349806D01*
X183759500Y-94356772D01*
X183759500Y-95677061D01*
X183750061Y-95724514D01*
X183723181Y-95764742D01*
X179124741Y-100363181D01*
X179084513Y-100390061D01*
X179037060Y-100399500D01*
X165637940Y-100399500D01*
X165590487Y-100390061D01*
X165550259Y-100363181D01*
X160564448Y-95377370D01*
X160532354Y-95321782D01*
X160532355Y-95257593D01*
X160539232Y-95231928D01*
X160539231Y-95231928D01*
X160540635Y-95226692D01*
X160560468Y-95000000D01*
X180409532Y-95000000D01*
X180410004Y-95005395D01*
X180428892Y-95221293D01*
X180429365Y-95226692D01*
X180430762Y-95231907D01*
X180430764Y-95231916D01*
X180486858Y-95441263D01*
X180486861Y-95441271D01*
X180488261Y-95446496D01*
X180584432Y-95652734D01*
X180587539Y-95657171D01*
X180587540Y-95657173D01*
X180657838Y-95757570D01*
X180714953Y-95839139D01*
X180875861Y-96000047D01*
X181062266Y-96130568D01*
X181268504Y-96226739D01*
X181273734Y-96228140D01*
X181273736Y-96228141D01*
X181483083Y-96284235D01*
X181488308Y-96285635D01*
X181658216Y-96300500D01*
X182169075Y-96300500D01*
X182171784Y-96300500D01*
X182341692Y-96285635D01*
X182561496Y-96226739D01*
X182767734Y-96130568D01*
X182954139Y-96000047D01*
X183115047Y-95839139D01*
X183245568Y-95652734D01*
X183341739Y-95446496D01*
X183400635Y-95226692D01*
X183420468Y-95000000D01*
X183400635Y-94773308D01*
X183341739Y-94553504D01*
X183245568Y-94347266D01*
X183115047Y-94160861D01*
X182954139Y-93999953D01*
X182767734Y-93869432D01*
X182762831Y-93867145D01*
X182762823Y-93867141D01*
X182709134Y-93842106D01*
X182656958Y-93796349D01*
X182637539Y-93729723D01*
X182656959Y-93663098D01*
X182709135Y-93617341D01*
X182762585Y-93592417D01*
X182771912Y-93587032D01*
X182949381Y-93462767D01*
X182957647Y-93455830D01*
X183110830Y-93302647D01*
X183117767Y-93294381D01*
X183242032Y-93116912D01*
X183247420Y-93107580D01*
X183338977Y-92911234D01*
X183342669Y-92901092D01*
X183390179Y-92723780D01*
X183390547Y-92712551D01*
X183379605Y-92710000D01*
X180450395Y-92710000D01*
X180439452Y-92712551D01*
X180439820Y-92723780D01*
X180487330Y-92901092D01*
X180491022Y-92911234D01*
X180582579Y-93107580D01*
X180587967Y-93116912D01*
X180712232Y-93294381D01*
X180719169Y-93302647D01*
X180872352Y-93455830D01*
X180880618Y-93462767D01*
X181058087Y-93587032D01*
X181067423Y-93592422D01*
X181120864Y-93617342D01*
X181173040Y-93663098D01*
X181192460Y-93729723D01*
X181173041Y-93796348D01*
X181120866Y-93842106D01*
X181103901Y-93850017D01*
X181062266Y-93869432D01*
X181057833Y-93872535D01*
X181057826Y-93872540D01*
X180880296Y-93996847D01*
X180880291Y-93996850D01*
X180875861Y-93999953D01*
X180872037Y-94003776D01*
X180872031Y-94003782D01*
X180718782Y-94157031D01*
X180718776Y-94157037D01*
X180714953Y-94160861D01*
X180711850Y-94165291D01*
X180711847Y-94165296D01*
X180587540Y-94342826D01*
X180587535Y-94342833D01*
X180584432Y-94347266D01*
X180582144Y-94352172D01*
X180582142Y-94352176D01*
X180490550Y-94548594D01*
X180490547Y-94548599D01*
X180488261Y-94553504D01*
X180486862Y-94558724D01*
X180486858Y-94558736D01*
X180430764Y-94768083D01*
X180430762Y-94768094D01*
X180429365Y-94773308D01*
X180428893Y-94778693D01*
X180428893Y-94778698D01*
X180421470Y-94863544D01*
X180409532Y-95000000D01*
X160560468Y-95000000D01*
X160540635Y-94773308D01*
X160481739Y-94553504D01*
X160385568Y-94347266D01*
X160255047Y-94160861D01*
X160094139Y-93999953D01*
X159907734Y-93869432D01*
X159849724Y-93842381D01*
X159797549Y-93796625D01*
X159778130Y-93730000D01*
X159797549Y-93663375D01*
X159849725Y-93617618D01*
X159907734Y-93590568D01*
X160094139Y-93460047D01*
X160255047Y-93299139D01*
X160385568Y-93112734D01*
X160481739Y-92906496D01*
X160540635Y-92686692D01*
X160560468Y-92460000D01*
X160540635Y-92233308D01*
X160481739Y-92013504D01*
X160464673Y-91976906D01*
X160453319Y-91916391D01*
X160472473Y-91857876D01*
X160517411Y-91815786D01*
X160577054Y-91800500D01*
X164252513Y-91800500D01*
X164268698Y-91801561D01*
X164300000Y-91805682D01*
X164456762Y-91785044D01*
X164602841Y-91724536D01*
X164640589Y-91695571D01*
X164728282Y-91628282D01*
X164747510Y-91603222D01*
X164758189Y-91591044D01*
X174712415Y-81636819D01*
X174752644Y-81609939D01*
X174800097Y-81600500D01*
X180411598Y-81600500D01*
X180471241Y-81615786D01*
G37*
%TD.AperFunction*%
%TA.AperFunction,Conductor*%
G36*
X165107198Y-89314015D02*
G01*
X165151221Y-89351615D01*
X165173376Y-89405102D01*
X165168834Y-89462818D01*
X165138584Y-89512181D01*
X164087584Y-90563181D01*
X164047356Y-90590061D01*
X163999903Y-90599500D01*
X160567728Y-90599500D01*
X160508085Y-90584214D01*
X160463147Y-90542125D01*
X160443993Y-90483609D01*
X160455346Y-90423095D01*
X160481739Y-90366496D01*
X160540635Y-90146692D01*
X160560468Y-89920000D01*
X160540635Y-89693308D01*
X160481739Y-89473504D01*
X160479451Y-89468597D01*
X160478837Y-89466910D01*
X160472420Y-89408314D01*
X160493784Y-89353376D01*
X160538102Y-89314511D01*
X160595359Y-89300500D01*
X165050903Y-89300500D01*
X165107198Y-89314015D01*
G37*
%TD.AperFunction*%
%TA.AperFunction,Conductor*%
G36*
X180856252Y-76014514D02*
G01*
X180900838Y-76054660D01*
X180921359Y-76111038D01*
X180913009Y-76170450D01*
X180878270Y-76218266D01*
X180875861Y-76219953D01*
X180872032Y-76223781D01*
X180872026Y-76223787D01*
X180718782Y-76377031D01*
X180718776Y-76377037D01*
X180714953Y-76380861D01*
X180711850Y-76385291D01*
X180711847Y-76385296D01*
X180587540Y-76562826D01*
X180587535Y-76562833D01*
X180584432Y-76567266D01*
X180582144Y-76572172D01*
X180582142Y-76572176D01*
X180490550Y-76768594D01*
X180490547Y-76768599D01*
X180488261Y-76773504D01*
X180486862Y-76778724D01*
X180486858Y-76778736D01*
X180430764Y-76988083D01*
X180430762Y-76988094D01*
X180429365Y-76993308D01*
X180409532Y-77220000D01*
X180429365Y-77446692D01*
X180430762Y-77451907D01*
X180430764Y-77451916D01*
X180486858Y-77661263D01*
X180486861Y-77661271D01*
X180488261Y-77666496D01*
X180584432Y-77872734D01*
X180714953Y-78059139D01*
X180875861Y-78220047D01*
X181062266Y-78350568D01*
X181067172Y-78352855D01*
X181067176Y-78352858D01*
X181120274Y-78377618D01*
X181172450Y-78423375D01*
X181191869Y-78490000D01*
X181172450Y-78556625D01*
X181120274Y-78602382D01*
X181067176Y-78627141D01*
X181067163Y-78627148D01*
X181062266Y-78629432D01*
X181057833Y-78632535D01*
X181057826Y-78632540D01*
X180880296Y-78756847D01*
X180880291Y-78756850D01*
X180875861Y-78759953D01*
X180872037Y-78763776D01*
X180872031Y-78763782D01*
X180718782Y-78917031D01*
X180718776Y-78917037D01*
X180714953Y-78920861D01*
X180711850Y-78925291D01*
X180711847Y-78925296D01*
X180584882Y-79106623D01*
X180540564Y-79145489D01*
X180483307Y-79159500D01*
X175222507Y-79159500D01*
X175206322Y-79158439D01*
X175183079Y-79155379D01*
X175175020Y-79154318D01*
X175166961Y-79155379D01*
X175135659Y-79159500D01*
X175026317Y-79173894D01*
X175026309Y-79173896D01*
X175018258Y-79174956D01*
X175010753Y-79178064D01*
X175010748Y-79178066D01*
X174879686Y-79232354D01*
X174879682Y-79232355D01*
X174872179Y-79235464D01*
X174865734Y-79240408D01*
X174865731Y-79240411D01*
X174753183Y-79326772D01*
X174753180Y-79326774D01*
X174746738Y-79331718D01*
X174741793Y-79338161D01*
X174741790Y-79338165D01*
X174727510Y-79356774D01*
X174716818Y-79368965D01*
X166022604Y-88063181D01*
X165982376Y-88090061D01*
X165934923Y-88099500D01*
X160549076Y-88099500D01*
X160489433Y-88084214D01*
X160444495Y-88042125D01*
X160425341Y-87983610D01*
X160436694Y-87923095D01*
X160443051Y-87909460D01*
X160481739Y-87826496D01*
X160540635Y-87606692D01*
X160560468Y-87380000D01*
X160540635Y-87153308D01*
X160501002Y-87005395D01*
X160483141Y-86938736D01*
X160483140Y-86938734D01*
X160481739Y-86933504D01*
X160385568Y-86727266D01*
X160255047Y-86540861D01*
X160094139Y-86379953D01*
X159907734Y-86249432D01*
X159849724Y-86222381D01*
X159797549Y-86176625D01*
X159778130Y-86110000D01*
X159797549Y-86043375D01*
X159849725Y-85997618D01*
X159907734Y-85970568D01*
X160094139Y-85840047D01*
X160255047Y-85679139D01*
X160385568Y-85492734D01*
X160481739Y-85286496D01*
X160540635Y-85066692D01*
X160560468Y-84840000D01*
X160540635Y-84613308D01*
X160481739Y-84393504D01*
X160385568Y-84187266D01*
X160255047Y-84000861D01*
X160094139Y-83839953D01*
X159907734Y-83709432D01*
X159849724Y-83682381D01*
X159797549Y-83636625D01*
X159778130Y-83570000D01*
X159797549Y-83503375D01*
X159849725Y-83457618D01*
X159907734Y-83430568D01*
X160094139Y-83300047D01*
X160255047Y-83139139D01*
X160385568Y-82952734D01*
X160481739Y-82746496D01*
X160540635Y-82526692D01*
X160560468Y-82300000D01*
X160540635Y-82073308D01*
X160481739Y-81853504D01*
X160385568Y-81647266D01*
X160255047Y-81460861D01*
X160094139Y-81299953D01*
X159907734Y-81169432D01*
X159849724Y-81142381D01*
X159797549Y-81096625D01*
X159778130Y-81030000D01*
X159797549Y-80963375D01*
X159849725Y-80917618D01*
X159907734Y-80890568D01*
X160094139Y-80760047D01*
X160255047Y-80599139D01*
X160385568Y-80412734D01*
X160481739Y-80206496D01*
X160540635Y-79986692D01*
X160560468Y-79760000D01*
X160540635Y-79533308D01*
X160481739Y-79313504D01*
X160385568Y-79107266D01*
X160255047Y-78920861D01*
X160215736Y-78881549D01*
X160184440Y-78828803D01*
X160182251Y-78767509D01*
X160209706Y-78712664D01*
X160260083Y-78677688D01*
X160297331Y-78663796D01*
X160412546Y-78577546D01*
X160498796Y-78462331D01*
X160549091Y-78327483D01*
X160555500Y-78267873D01*
X160555499Y-76172128D01*
X160551750Y-76137252D01*
X160563504Y-76069818D01*
X160609247Y-76018894D01*
X160675040Y-76000000D01*
X180798038Y-76000000D01*
X180856252Y-76014514D01*
G37*
%TD.AperFunction*%
%TD*%
M02*
