%TF.GenerationSoftware,KiCad,Pcbnew,(7.0.0)*%
%TF.CreationDate,2024-02-10T14:13:59+01:00*%
%TF.ProjectId,Nodo_WEMOS_SALIDAS,4e6f646f-5f57-4454-9d4f-535f53414c49,rev?*%
%TF.SameCoordinates,Original*%
%TF.FileFunction,Soldermask,Top*%
%TF.FilePolarity,Negative*%
%FSLAX46Y46*%
G04 Gerber Fmt 4.6, Leading zero omitted, Abs format (unit mm)*
G04 Created by KiCad (PCBNEW (7.0.0)) date 2024-02-10 14:13:59*
%MOMM*%
%LPD*%
G01*
G04 APERTURE LIST*
G04 Aperture macros list*
%AMRoundRect*
0 Rectangle with rounded corners*
0 $1 Rounding radius*
0 $2 $3 $4 $5 $6 $7 $8 $9 X,Y pos of 4 corners*
0 Add a 4 corners polygon primitive as box body*
4,1,4,$2,$3,$4,$5,$6,$7,$8,$9,$2,$3,0*
0 Add four circle primitives for the rounded corners*
1,1,$1+$1,$2,$3*
1,1,$1+$1,$4,$5*
1,1,$1+$1,$6,$7*
1,1,$1+$1,$8,$9*
0 Add four rect primitives between the rounded corners*
20,1,$1+$1,$2,$3,$4,$5,0*
20,1,$1+$1,$4,$5,$6,$7,0*
20,1,$1+$1,$6,$7,$8,$9,0*
20,1,$1+$1,$8,$9,$2,$3,0*%
G04 Aperture macros list end*
%ADD10C,3.500000*%
%ADD11R,1.700000X1.700000*%
%ADD12O,1.700000X1.700000*%
%ADD13O,2.000000X1.600000*%
%ADD14R,2.000000X2.000000*%
%ADD15RoundRect,0.200000X0.200000X0.275000X-0.200000X0.275000X-0.200000X-0.275000X0.200000X-0.275000X0*%
%ADD16RoundRect,0.200000X-0.275000X0.200000X-0.275000X-0.200000X0.275000X-0.200000X0.275000X0.200000X0*%
%ADD17RoundRect,0.200000X-0.200000X-0.275000X0.200000X-0.275000X0.200000X0.275000X-0.200000X0.275000X0*%
%ADD18RoundRect,0.200000X0.275000X-0.200000X0.275000X0.200000X-0.275000X0.200000X-0.275000X-0.200000X0*%
%ADD19RoundRect,0.150000X-0.587500X-0.150000X0.587500X-0.150000X0.587500X0.150000X-0.587500X0.150000X0*%
%ADD20RoundRect,0.250000X0.600000X0.725000X-0.600000X0.725000X-0.600000X-0.725000X0.600000X-0.725000X0*%
%ADD21O,1.700000X1.950000*%
%ADD22RoundRect,0.250000X-0.725000X0.600000X-0.725000X-0.600000X0.725000X-0.600000X0.725000X0.600000X0*%
%ADD23O,1.950000X1.700000*%
%ADD24RoundRect,0.250000X-0.750000X0.600000X-0.750000X-0.600000X0.750000X-0.600000X0.750000X0.600000X0*%
%ADD25O,2.000000X1.700000*%
%ADD26RoundRect,0.250000X0.600000X0.750000X-0.600000X0.750000X-0.600000X-0.750000X0.600000X-0.750000X0*%
%ADD27O,1.700000X2.000000*%
G04 APERTURE END LIST*
D10*
%TO.C,J4*%
X187500000Y-104000000D03*
X211300000Y-104000000D03*
X187500000Y-80700000D03*
X211300000Y-80700000D03*
D11*
X186999999Y-96159999D03*
D12*
X186999999Y-93619999D03*
X186999999Y-91079999D03*
X186999999Y-88539999D03*
%TD*%
D13*
%TO.C,U1*%
X181914999Y-77219999D03*
X181914999Y-79759999D03*
X181914999Y-82299999D03*
X181914999Y-84839999D03*
X181914999Y-87379999D03*
X181914999Y-89919999D03*
X181914999Y-92459999D03*
X181914999Y-94999999D03*
X159054999Y-94999999D03*
X159054999Y-92459999D03*
X159054999Y-89919999D03*
X159054999Y-87379999D03*
X159054999Y-84839999D03*
X159054999Y-82299999D03*
X159054999Y-79759999D03*
D14*
X159054999Y-77219999D03*
%TD*%
D15*
%TO.C,R6*%
X178825000Y-82500000D03*
X177175000Y-82500000D03*
%TD*%
%TO.C,R5*%
X178825000Y-85000000D03*
X177175000Y-85000000D03*
%TD*%
D16*
%TO.C,R4*%
X180000000Y-116675000D03*
X180000000Y-118325000D03*
%TD*%
D15*
%TO.C,R3*%
X173825000Y-114000000D03*
X172175000Y-114000000D03*
%TD*%
D17*
%TO.C,R2*%
X158675000Y-120500000D03*
X160325000Y-120500000D03*
%TD*%
D18*
%TO.C,R1*%
X154500000Y-116825000D03*
X154500000Y-115175000D03*
%TD*%
D19*
%TO.C,Q3*%
X178000000Y-118500000D03*
X176125000Y-119450000D03*
X176125000Y-117550000D03*
%TD*%
%TO.C,Q2*%
X176125000Y-114050000D03*
X176125000Y-115950000D03*
X178000000Y-115000000D03*
%TD*%
%TO.C,Q1*%
X154625000Y-118550000D03*
X154625000Y-120450000D03*
X156500000Y-119500000D03*
%TD*%
D20*
%TO.C,J6*%
X160750000Y-111525000D03*
D21*
X158249999Y-111524999D03*
X155749999Y-111524999D03*
X153249999Y-111524999D03*
%TD*%
D22*
%TO.C,J5*%
X153700000Y-82000000D03*
D23*
X153699999Y-84499999D03*
X153699999Y-86999999D03*
X153699999Y-89499999D03*
X153699999Y-91999999D03*
X153699999Y-94499999D03*
X153699999Y-96999999D03*
X153699999Y-99499999D03*
X153699999Y-101999999D03*
X153699999Y-104499999D03*
%TD*%
D24*
%TO.C,J3*%
X186500000Y-116000000D03*
D25*
X186499999Y-118499999D03*
%TD*%
D26*
%TO.C,J2*%
X182875000Y-126000000D03*
D27*
X180374999Y-125999999D03*
%TD*%
D20*
%TO.C,J1*%
X159500000Y-126000000D03*
D21*
X156999999Y-125999999D03*
X154499999Y-125999999D03*
%TD*%
M02*
