
(kicad_symbol_lib (version 20211014) (generator kicad_symbol_editor)
  (symbol "2SA1015" (pin_names (offset 1.016)) (in_bom yes) (on_board yes)
    (property "Reference" "Q" (id 0) (at -2.58075 7.65803 0)
      (effects (font (size 1.27 1.27)) (justify bottom left))
    )
    (property "Value" "2SA1015" (id 1) (at -2.57074 -10.1926 0)
      (effects (font (size 1.27 1.27)) (justify bottom left))
    )
    (property "Footprint" "TO92127P510H650-3" (id 2) (at 0 0 0)
      (effects (font (size 1.27 1.27)) (justify bottom) hide)
    )
    (property "STANDARD" "IPC-7251" (id 4) (at 0 0 0)
      (effects (font (size 1.27 1.27)) (justify bottom) hide)
    )
    (property "MANUFACTURER" "Toshiba" (id 5) (at 0 0 0)
      (effects (font (size 1.27 1.27)) (justify bottom) hide)
    )
    (symbol "2SA1015_0_0"
      (polyline
        (pts (xy 2.086 -1.678) (xy 1.578 -2.594)) (stroke (width 0.1524))
      )
      (polyline
        (pts (xy 1.578 -2.594) (xy 0.516 -1.478)) (stroke (width 0.1524))
      )
      (polyline
        (pts (xy 0.516 -1.478) (xy 2.086 -1.678)) (stroke (width 0.1524))
      )
      (polyline
        (pts (xy 2.54 -2.54) (xy 1.808 -2.124)) (stroke (width 0.1524))
      )
      (polyline
        (pts (xy 2.54 2.54) (xy 0.508 1.524)) (stroke (width 0.1524))
      )
      (polyline
        (pts (xy 1.905 -1.778) (xy 1.524 -2.413)) (stroke (width 0.254))
      )
      (polyline
        (pts (xy 1.524 -2.413) (xy 0.762 -1.651)) (stroke (width 0.254))
      )
      (polyline
        (pts (xy 0.762 -1.651) (xy 1.778 -1.778)) (stroke (width 0.254))
      )
      (polyline
        (pts (xy 1.778 -1.778) (xy 1.524 -2.159)) (stroke (width 0.254))
      )
      (polyline
        (pts (xy 1.524 -2.159) (xy 1.143 -1.905)) (stroke (width 0.254))
      )
      (polyline
        (pts (xy 1.143 -1.905) (xy 1.524 -1.905)) (stroke (width 0.254))
      )
      (rectangle (start -0.255025 -2.54451) (end 0.507997 2.54573)
        (stroke (width 0.1)) (fill (type outline))
      )
      (pin passive line (at -5.08 0.0 0) (length 5.08)
        (name "~"
          (effects (font (size 1.016 1.016)))
        )
        (number "3"
          (effects (font (size 1.016 1.016)))
        )
      )
      (pin passive line (at 2.54 -5.08 90.0) (length 2.54)
        (name "~"
          (effects (font (size 1.016 1.016)))
        )
        (number "1"
          (effects (font (size 1.016 1.016)))
        )
      )
      (pin passive line (at 2.54 5.08 270.0) (length 2.54)
        (name "~"
          (effects (font (size 1.016 1.016)))
        )
        (number "2"
          (effects (font (size 1.016 1.016)))
        )
      )
    )
  )
)