%TF.GenerationSoftware,KiCad,Pcbnew,(7.0.0)*%
%TF.CreationDate,2023-04-11T12:19:21+02:00*%
%TF.ProjectId,NerdyDerby,4e657264-7944-4657-9262-792e6b696361,rev?*%
%TF.SameCoordinates,Original*%
%TF.FileFunction,Profile,NP*%
%FSLAX46Y46*%
G04 Gerber Fmt 4.6, Leading zero omitted, Abs format (unit mm)*
G04 Created by KiCad (PCBNEW (7.0.0)) date 2023-04-11 12:19:21*
%MOMM*%
%LPD*%
G01*
G04 APERTURE LIST*
%TA.AperFunction,Profile*%
%ADD10C,0.100000*%
%TD*%
G04 APERTURE END LIST*
D10*
X136000000Y-63000000D02*
G75*
G03*
X133000000Y-60000000I-2999998J2D01*
G01*
X133000000Y-130000000D02*
G75*
G03*
X136000000Y-127000000I2J2999998D01*
G01*
X60000000Y-127000000D02*
G75*
G03*
X63000000Y-130000000I2999998J-2D01*
G01*
X63000000Y-60000000D02*
G75*
G03*
X60000000Y-63000000I-1J-2999999D01*
G01*
X136000000Y-127000000D02*
X136000000Y-63000000D01*
X63000000Y-130000000D02*
X133000000Y-130000000D01*
X133000000Y-60000000D02*
X63000000Y-60000000D01*
X60000000Y-63000000D02*
X60000000Y-127000000D01*
M02*
