M48
; DRILL file {KiCad (7.0.0)} date Tue Apr 11 12:19:24 2023
; FORMAT={-:-/ absolute / inch / decimal}
; #@! TF.CreationDate,2023-04-11T12:19:24+02:00
; #@! TF.GenerationSoftware,Kicad,Pcbnew,(7.0.0)
; #@! TF.FileFunction,NonPlated,1,2,NPTH
FMAT,2
INCH
; #@! TA.AperFunction,NonPlated,NPTH,ComponentDrill
T1C0.0472
; #@! TA.AperFunction,NonPlated,NPTH,ComponentDrill
T2C0.1260
%
G90
G05
T1
X2.5Y-3.6348
X4.8465Y-2.5
X5.2352Y-4.5807
T2
X2.5591Y-2.5591
X2.5591Y-4.9213
X5.1575Y-2.5591
X5.1575Y-4.9213
T0
M30
