%TF.GenerationSoftware,KiCad,Pcbnew,(7.0.0)*%
%TF.CreationDate,2023-04-11T12:19:21+02:00*%
%TF.ProjectId,NerdyDerby,4e657264-7944-4657-9262-792e6b696361,rev?*%
%TF.SameCoordinates,Original*%
%TF.FileFunction,Soldermask,Top*%
%TF.FilePolarity,Negative*%
%FSLAX46Y46*%
G04 Gerber Fmt 4.6, Leading zero omitted, Abs format (unit mm)*
G04 Created by KiCad (PCBNEW (7.0.0)) date 2023-04-11 12:19:21*
%MOMM*%
%LPD*%
G01*
G04 APERTURE LIST*
G04 Aperture macros list*
%AMRoundRect*
0 Rectangle with rounded corners*
0 $1 Rounding radius*
0 $2 $3 $4 $5 $6 $7 $8 $9 X,Y pos of 4 corners*
0 Add a 4 corners polygon primitive as box body*
4,1,4,$2,$3,$4,$5,$6,$7,$8,$9,$2,$3,0*
0 Add four circle primitives for the rounded corners*
1,1,$1+$1,$2,$3*
1,1,$1+$1,$4,$5*
1,1,$1+$1,$6,$7*
1,1,$1+$1,$8,$9*
0 Add four rect primitives between the rounded corners*
20,1,$1+$1,$2,$3,$4,$5,0*
20,1,$1+$1,$4,$5,$6,$7,0*
20,1,$1+$1,$6,$7,$8,$9,0*
20,1,$1+$1,$8,$9,$2,$3,0*%
G04 Aperture macros list end*
%ADD10R,1.700000X1.700000*%
%ADD11O,1.700000X1.700000*%
%ADD12R,1.524000X1.524000*%
%ADD13C,1.524000*%
%ADD14C,3.200000*%
%ADD15RoundRect,0.312500X0.830500X0.312500X-0.830500X0.312500X-0.830500X-0.312500X0.830500X-0.312500X0*%
%ADD16RoundRect,0.250000X0.650000X-0.325000X0.650000X0.325000X-0.650000X0.325000X-0.650000X-0.325000X0*%
%ADD17C,1.200000*%
%ADD18RoundRect,0.250000X-0.750000X0.600000X-0.750000X-0.600000X0.750000X-0.600000X0.750000X0.600000X0*%
%ADD19O,2.000000X1.700000*%
%ADD20RoundRect,0.312500X-0.312500X0.830500X-0.312500X-0.830500X0.312500X-0.830500X0.312500X0.830500X0*%
%ADD21RoundRect,0.250000X0.750000X-0.600000X0.750000X0.600000X-0.750000X0.600000X-0.750000X-0.600000X0*%
%ADD22RoundRect,0.250000X0.600000X0.750000X-0.600000X0.750000X-0.600000X-0.750000X0.600000X-0.750000X0*%
%ADD23O,1.700000X2.000000*%
%ADD24R,1.200000X2.200000*%
%ADD25R,5.800000X6.400000*%
%ADD26RoundRect,0.250000X-0.600000X-0.725000X0.600000X-0.725000X0.600000X0.725000X-0.600000X0.725000X0*%
%ADD27O,1.700000X1.950000*%
%ADD28R,1.600000X1.600000*%
%ADD29O,1.600000X1.600000*%
%ADD30RoundRect,0.237500X0.250000X0.237500X-0.250000X0.237500X-0.250000X-0.237500X0.250000X-0.237500X0*%
G04 APERTURE END LIST*
D10*
%TO.C,J4*%
X124999999Y-116009999D03*
D11*
X124999999Y-113469999D03*
X124999999Y-110929999D03*
%TD*%
D10*
%TO.C,J3*%
X121324999Y-116024999D03*
D11*
X121324999Y-113484999D03*
X121324999Y-110944999D03*
%TD*%
D12*
%TO.C,U2*%
X112016999Y-80889999D03*
D13*
X112017000Y-78350000D03*
X112017000Y-75810000D03*
X112017000Y-73270000D03*
X112017000Y-70730000D03*
X112017000Y-68190000D03*
X112017000Y-65650000D03*
X112017000Y-63110000D03*
X93983000Y-80890000D03*
X93983000Y-78350000D03*
X93983000Y-75810000D03*
X93983000Y-73270000D03*
X93983000Y-70730000D03*
X93983000Y-68190000D03*
X93983000Y-65650000D03*
X93983000Y-63110000D03*
%TD*%
D14*
%TO.C,H3*%
X65000000Y-65000000D03*
%TD*%
D15*
%TO.C,SW6*%
X84500000Y-71000000D03*
X78500000Y-71000000D03*
X84500000Y-74000000D03*
X78500000Y-74000000D03*
%TD*%
%TO.C,SW5*%
X84500000Y-77500000D03*
X78500000Y-77500000D03*
X84500000Y-80500000D03*
X78500000Y-80500000D03*
%TD*%
D16*
%TO.C,C1*%
X72500000Y-96400000D03*
X72500000Y-93450000D03*
%TD*%
D17*
%TO.C,J2*%
X63500000Y-92325000D03*
D18*
X65500000Y-93925000D03*
D19*
X65499999Y-96424999D03*
%TD*%
D20*
%TO.C,SW2*%
X103704850Y-107909700D03*
X103704850Y-113909700D03*
X106704850Y-107909700D03*
X106704850Y-113909700D03*
%TD*%
%TO.C,SW3*%
X103704850Y-121909700D03*
X103704850Y-127909700D03*
X106704850Y-121909700D03*
X106704850Y-127909700D03*
%TD*%
D14*
%TO.C,H2*%
X131000000Y-65000000D03*
%TD*%
D15*
%TO.C,SW8*%
X73500000Y-71000000D03*
X67500000Y-71000000D03*
X73500000Y-74000000D03*
X67500000Y-74000000D03*
%TD*%
D17*
%TO.C,J1*%
X132975000Y-116350000D03*
D21*
X130975000Y-114750000D03*
D19*
X130974999Y-112249999D03*
%TD*%
D17*
%TO.C,J6*%
X123100000Y-63500000D03*
D22*
X121500000Y-65500000D03*
D23*
X118999999Y-65499999D03*
%TD*%
D20*
%TO.C,SW1*%
X97500000Y-114909700D03*
X97500000Y-120909700D03*
X100500000Y-114909700D03*
X100500000Y-120909700D03*
%TD*%
D24*
%TO.C,U1*%
X77219999Y-99124999D03*
D25*
X79499999Y-92824999D03*
D24*
X81779999Y-99124999D03*
%TD*%
D20*
%TO.C,SW4*%
X109500000Y-114909700D03*
X109500000Y-120909700D03*
X112500000Y-114909700D03*
X112500000Y-120909700D03*
%TD*%
D26*
%TO.C,J5*%
X75750000Y-124475000D03*
D27*
X78249999Y-124474999D03*
X80749999Y-124474999D03*
X83249999Y-124474999D03*
%TD*%
D15*
%TO.C,SW7*%
X73500000Y-77500000D03*
X67500000Y-77500000D03*
X73500000Y-80500000D03*
X67500000Y-80500000D03*
%TD*%
D14*
%TO.C,H1*%
X131000000Y-125000000D03*
%TD*%
%TO.C,H4*%
X65000000Y-125000000D03*
%TD*%
D28*
%TO.C,A1*%
X91949999Y-102609999D03*
D29*
X94489999Y-102609999D03*
X97029999Y-102609999D03*
X99569999Y-102609999D03*
X102109999Y-102609999D03*
X104649999Y-102609999D03*
X107189999Y-102609999D03*
X109729999Y-102609999D03*
X112269999Y-102609999D03*
X114809999Y-102609999D03*
X117349999Y-102609999D03*
X119889999Y-102609999D03*
X122429999Y-102609999D03*
X124969999Y-102609999D03*
X127509999Y-102609999D03*
X127509999Y-87369999D03*
X124969999Y-87369999D03*
X122429999Y-87369999D03*
X119889999Y-87369999D03*
X117349999Y-87369999D03*
X114809999Y-87369999D03*
X112269999Y-87369999D03*
X109729999Y-87369999D03*
X107189999Y-87369999D03*
X104649999Y-87369999D03*
X102109999Y-87369999D03*
X99569999Y-87369999D03*
X97029999Y-87369999D03*
X94489999Y-87369999D03*
X91949999Y-87369999D03*
%TD*%
D30*
%TO.C,R1*%
X116412500Y-78350000D03*
X114587500Y-78350000D03*
%TD*%
M02*
