(footprint "JST_XH_B2B-XH-AM_1x02_P2.50mm_Vertical" (version 20211014) (generator pcbnew)
  (layer "F.Cu")
  (tedit 5C28146E)
  (descr "JST XH series connector, B2B-XH-AM, with boss (http://www.jst-mfg.com/product/pdf/eng/eXH.pdf), generated with kicad-footprint-generator")
  (tags "connector JST XH vertical boss")
  (property "Sheetfile" "Scalextric.kicad_sch")
  (property "Sheetname" "")
  (attr through_hole)
  (fp_text reference "J2" (at 1.25 -3.55) (layer "F.SilkS")
    (effects (font (size 1 1) (thickness 0.15)))
    (tstamp ed3fbe65-9355-4334-b1c3-ed04d615ebae)
  )
  (fp_text value "jugador1" (at 1.25 4.6) (layer "F.SilkS")
    (effects (font (size 1 1) (thickness 0.15)))
    (tstamp 75b7d93c-0dc0-464a-8b47-0b0139669d12)
  )
  (fp_text user "${REFERENCE}" (at 1.25 2.7) (layer "F.Fab")
    (effects (font (size 1 1) (thickness 0.15)))
    (tstamp a3d3418c-1975-4938-84b4-5e5d7fc6aeff)
  )
  (fp_line (start 1.25 2.75) (end -0.74 2.75) (layer "F.SilkS") (width 0.12) (tstamp 02b12c86-773c-43b9-bee2-ef6c9fd88154))
  (fp_line (start 5.05 -0.2) (end 4.3 -0.2) (layer "F.SilkS") (width 0.12) (tstamp 094dc5e1-5ea8-4bf5-8667-dc5d9b1fed6c))
  (fp_line (start 0.75 -2.45) (end 0.75 -1.7) (layer "F.SilkS") (width 0.12) (tstamp 09bd1c34-39ef-458d-8a16-4af848bfcc4d))
  (fp_line (start 5.06 3.51) (end 5.06 -2.46) (layer "F.SilkS") (width 0.12) (tstamp 0e893cff-1e37-40f4-990e-acf83bc0d3e6))
  (fp_line (start 4.3 2.75) (end 1.25 2.75) (layer "F.SilkS") (width 0.12) (tstamp 35e49233-5432-4d90-9755-07393837c495))
  (fp_line (start -2.55 -1.7) (end -0.75 -1.7) (layer "F.SilkS") (width 0.12) (tstamp 36405e61-cff3-4dbc-88fb-3e5588daf0f5))
  (fp_line (start 1.75 -1.7) (end 1.75 -2.45) (layer "F.SilkS") (width 0.12) (tstamp 3ab2be0c-498e-4591-98dd-f8a03d31aedf))
  (fp_line (start -1.6 -2.75) (end -2.85 -2.75) (layer "F.SilkS") (width 0.12) (tstamp 3e5d6a9f-663e-4aba-a10e-52fc628a4003))
  (fp_line (start 5.06 -2.46) (end -2.56 -2.46) (layer "F.SilkS") (width 0.12) (tstamp 4a24b077-efe8-484c-929d-f2a19a27bef6))
  (fp_line (start 0.75 -1.7) (end 1.75 -1.7) (layer "F.SilkS") (width 0.12) (tstamp 4e8af3c4-1abd-45ad-a6d9-674684487e4e))
  (fp_line (start -0.75 -1.7) (end -0.75 -2.45) (layer "F.SilkS") (width 0.12) (tstamp 55bfb83a-3531-4a08-a094-0ea78c194095))
  (fp_line (start -2.55 -0.2) (end -1.8 -0.2) (layer "F.SilkS") (width 0.12) (tstamp 56ccb242-63a1-4f67-a65e-0308671ca7e3))
  (fp_line (start 5.05 -2.45) (end 3.25 -2.45) (layer "F.SilkS") (width 0.12) (tstamp 59e3dd33-f35d-4a21-95d8-febb4d68bad2))
  (fp_line (start 3.25 -1.7) (end 5.05 -1.7) (layer "F.SilkS") (width 0.12) (tstamp 6aaed9d7-9fc6-4edc-ba52-f616fd489631))
  (fp_line (start -1.8 -0.2) (end -1.8 1.14) (layer "F.SilkS") (width 0.12) (tstamp 75ff0b08-3fde-4b33-bd7b-da7a97228314))
  (fp_line (start -2.85 -2.75) (end -2.85 -1.5) (layer "F.SilkS") (width 0.12) (tstamp 9d7772ea-a3d7-4fcd-a495-f09494258733))
  (fp_line (start 5.05 -1.7) (end 5.05 -2.45) (layer "F.SilkS") (width 0.12) (tstamp a0c6bd79-0e85-433a-bfdb-7bd4ddbfd9dc))
  (fp_line (start 1.75 -2.45) (end 0.75 -2.45) (layer "F.SilkS") (width 0.12) (tstamp c3f73b35-a2b7-49ed-a354-b4bdc0662738))
  (fp_line (start 4.3 -0.2) (end 4.3 2.75) (layer "F.SilkS") (width 0.12) (tstamp c600c8c5-91c6-49bc-9706-10784552e8fb))
  (fp_line (start 3.25 -2.45) (end 3.25 -1.7) (layer "F.SilkS") (width 0.12) (tstamp d03acb7c-56bc-427f-aa9a-2b8d6d8b1e35))
  (fp_line (start -0.75 -2.45) (end -2.55 -2.45) (layer "F.SilkS") (width 0.12) (tstamp d9dc80ac-a3e4-41e3-97db-7ad440665e22))
  (fp_line (start -2.55 -2.45) (end -2.55 -1.7) (layer "F.SilkS") (width 0.12) (tstamp e8c7db9e-e4e7-4ba0-8bae-cfb41fbf8efe))
  (fp_line (start -2.56 -2.46) (end -2.56 3.51) (layer "F.SilkS") (width 0.12) (tstamp ea35ac41-2920-472b-8509-8cd373ab3795))
  (fp_line (start -2.56 3.51) (end 5.06 3.51) (layer "F.SilkS") (width 0.12) (tstamp f0be2ee3-d72e-4657-a196-aedea3749b3d))
  (fp_line (start -2.95 3.9) (end 5.45 3.9) (layer "F.CrtYd") (width 0.05) (tstamp 21dd2bb8-87fd-43cb-8ca5-230e45e084f7))
  (fp_line (start 5.45 -2.85) (end -2.95 -2.85) (layer "F.CrtYd") (width 0.05) (tstamp 9b5be708-643d-4c29-881b-9269ca0f15dd))
  (fp_line (start -2.95 -2.85) (end -2.95 3.9) (layer "F.CrtYd") (width 0.05) (tstamp c99988aa-cc83-401f-9d81-c0957cfd078a))
  (fp_line (start 5.45 3.9) (end 5.45 -2.85) (layer "F.CrtYd") (width 0.05) (tstamp f7fe0438-414c-4a07-a01b-ddf85a1ecb0c))
  (fp_line (start -2.45 -2.35) (end -2.45 3.4) (layer "F.Fab") (width 0.1) (tstamp 10836e77-8c1a-40f1-bbcb-94b4d7f04a49))
  (fp_line (start 4.95 -2.35) (end -2.45 -2.35) (layer "F.Fab") (width 0.1) (tstamp 3a9bffc8-20ee-4f6d-a5e4-62719b2b8c58))
  (fp_line (start -0.625 -2.35) (end 0 -1.35) (layer "F.Fab") (width 0.1) (tstamp 5ef0c736-97e8-4a23-9314-d35c549efe80))
  (fp_line (start -2.45 3.4) (end 4.95 3.4) (layer "F.Fab") (width 0.1) (tstamp 6eb18039-cb66-4b1d-bd87-48d8d57f65e9))
  (fp_line (start 4.95 3.4) (end 4.95 -2.35) (layer "F.Fab") (width 0.1) (tstamp afd9530a-f14d-4e5a-9eeb-d27d327dacb6))
  (fp_line (start 0 -1.35) (end 0.625 -2.35) (layer "F.Fab") (width 0.1) (tstamp efc8c30f-1f3a-4ae2-9adc-822ad237b871))
  (pad "" np_thru_hole circle (at -1.6 2) (size 1.2 1.2) (drill 1.2) (layers *.Cu *.Mask) (tstamp fcc63d1c-8ead-4e28-ab09-ed9df8f4c818))
  (pad "1" thru_hole roundrect (at 0 0) (size 1.7 2) (drill 1) (layers *.Cu *.Mask) (roundrect_rratio 0.147059) (tstamp 92981d2e-e8b0-4258-b856-c728d1ba997b))
  (pad "2" thru_hole oval (at 2.5 0) (size 1.7 2) (drill 1) (layers *.Cu *.Mask) (tstamp 5c1b93e2-6ad5-47d8-9e02-0ad53f401356))
  (model "${KICAD6_3DMODEL_DIR}/Connector_JST.3dshapes/JST_XH_B2B-XH-AM_1x02_P2.50mm_Vertical.wrl"
    (offset (xyz 0 0 0))
    (scale (xyz 1 1 1))
    (rotate (xyz 0 0 0))
  )
)
